[
  {
    "cmd": [
      "vpython3",
      "-u",
      "RECIPE_MODULE[recipe_engine::file]/resources/fileutil.py",
      "--json-output",
      "/path/to/tmp/json",
      "compute_hash",
      "RECIPE_REPO[infra]",
      "recipes/recipe_modules/support_3pp",
      "recipes/recipes/3pp.py",
      "infra/tools/dockerbuild"
    ],
    "infra_step": true,
    "name": "compute recipe file hash",
    "~followup_annotations": [
      "@@@STEP_TEXT@Hash calculated: deadbeef@@@"
    ]
  },
  {
    "cmd": [
      "echo",
      "3pp"
    ],
    "env": {
      "CIPD_CACHE_DIR": "[CLEANUP]/tmp_tmp_1"
    },
    "name": "echo package_prefix"
  },
  {
    "cmd": [
      "vpython3",
      "-u",
      "RECIPE_MODULE[recipe_engine::file]/resources/fileutil.py",
      "--json-output",
      "/path/to/tmp/json",
      "glob",
      "[CACHE]/builder/package_repo",
      "**/3pp.pb"
    ],
    "env": {
      "CIPD_CACHE_DIR": "[CLEANUP]/tmp_tmp_1"
    },
    "infra_step": true,
    "name": "find package specs",
    "~followup_annotations": [
      "@@@STEP_LOG_LINE@glob@[CACHE]/builder/package_repo/dep/3pp.pb@@@",
      "@@@STEP_LOG_LINE@glob@[CACHE]/builder/package_repo/tool/3pp.pb@@@",
      "@@@STEP_LOG_END@glob@@@"
    ]
  },
  {
    "cmd": [],
    "name": "load package specs"
  },
  {
    "cmd": [
      "vpython3",
      "-u",
      "RECIPE_MODULE[recipe_engine::file]/resources/fileutil.py",
      "--json-output",
      "/path/to/tmp/json",
      "copy",
      "[CACHE]/builder/package_repo/dep/3pp.pb",
      "/path/to/tmp/"
    ],
    "env": {
      "CIPD_CACHE_DIR": "[CLEANUP]/tmp_tmp_1"
    },
    "infra_step": true,
    "name": "load package specs.read 'dep/3pp.pb'",
    "~followup_annotations": [
      "@@@STEP_NEST_LEVEL@1@@@",
      "@@@STEP_LOG_LINE@3pp.pb@@@@",
      "@@@STEP_LOG_LINE@3pp.pb@  create {@@@",
      "@@@STEP_LOG_LINE@3pp.pb@    platform_re: \"linux-amd64|mac-.*\"@@@",
      "@@@STEP_LOG_LINE@3pp.pb@    source { git {@@@",
      "@@@STEP_LOG_LINE@3pp.pb@        repo: \"https://go.repo/dep\"@@@",
      "@@@STEP_LOG_LINE@3pp.pb@        tag_pattern: \"v%s\"@@@",
      "@@@STEP_LOG_LINE@3pp.pb@      } }@@@",
      "@@@STEP_LOG_LINE@3pp.pb@    build {}@@@",
      "@@@STEP_LOG_LINE@3pp.pb@  }@@@",
      "@@@STEP_LOG_LINE@3pp.pb@  upload { pkg_prefix: \"pkg\" }@@@",
      "@@@STEP_LOG_LINE@3pp.pb@  @@@",
      "@@@STEP_LOG_END@3pp.pb@@@"
    ]
  },
  {
    "cmd": [
      "vpython3",
      "-u",
      "RECIPE_MODULE[recipe_engine::file]/resources/fileutil.py",
      "--json-output",
      "/path/to/tmp/json",
      "compute_hash",
      "[START_DIR]",
      "../[CACHE]/builder/package_repo/dep"
    ],
    "env": {
      "CIPD_CACHE_DIR": "[CLEANUP]/tmp_tmp_1"
    },
    "infra_step": true,
    "name": "load package specs.Compute hash for 'pkg/dep'",
    "~followup_annotations": [
      "@@@STEP_NEST_LEVEL@1@@@",
      "@@@STEP_TEXT@Hash calculated: deadbeef@@@"
    ]
  },
  {
    "cmd": [
      "vpython3",
      "-u",
      "RECIPE_MODULE[recipe_engine::file]/resources/fileutil.py",
      "--json-output",
      "/path/to/tmp/json",
      "copy",
      "[CACHE]/builder/package_repo/tool/3pp.pb",
      "/path/to/tmp/"
    ],
    "env": {
      "CIPD_CACHE_DIR": "[CLEANUP]/tmp_tmp_1"
    },
    "infra_step": true,
    "name": "load package specs.read 'tool/3pp.pb'",
    "~followup_annotations": [
      "@@@STEP_NEST_LEVEL@1@@@",
      "@@@STEP_LOG_LINE@3pp.pb@@@@",
      "@@@STEP_LOG_LINE@3pp.pb@  create {@@@",
      "@@@STEP_LOG_LINE@3pp.pb@    platform_re: \"linux-amd64|mac-.*\"@@@",
      "@@@STEP_LOG_LINE@3pp.pb@    source { git {@@@",
      "@@@STEP_LOG_LINE@3pp.pb@        repo: \"https://go.repo/tool\"@@@",
      "@@@STEP_LOG_LINE@3pp.pb@        version_restriction { op: LT val: \"1.5rc\" }@@@",
      "@@@STEP_LOG_LINE@3pp.pb@        version_restriction { op: GE val: \"1.4\" }@@@",
      "@@@STEP_LOG_LINE@3pp.pb@      } }@@@",
      "@@@STEP_LOG_LINE@3pp.pb@    build { tool: \"pkg/dep\" }@@@",
      "@@@STEP_LOG_LINE@3pp.pb@  }@@@",
      "@@@STEP_LOG_LINE@3pp.pb@  upload { pkg_prefix: \"build_tools\" }@@@",
      "@@@STEP_LOG_LINE@3pp.pb@  @@@",
      "@@@STEP_LOG_END@3pp.pb@@@"
    ]
  },
  {
    "cmd": [
      "vpython3",
      "-u",
      "RECIPE_MODULE[recipe_engine::file]/resources/fileutil.py",
      "--json-output",
      "/path/to/tmp/json",
      "compute_hash",
      "[START_DIR]",
      "../[CACHE]/builder/package_repo/tool"
    ],
    "env": {
      "CIPD_CACHE_DIR": "[CLEANUP]/tmp_tmp_1"
    },
    "infra_step": true,
    "name": "load package specs.Compute hash for 'build_tools/tool'",
    "~followup_annotations": [
      "@@@STEP_NEST_LEVEL@1@@@",
      "@@@STEP_TEXT@Hash calculated: deadbeef@@@"
    ]
  },
  {
    "cmd": [],
    "name": "compute build plan"
  },
  {
    "cmd": [],
    "name": "building pkg/dep",
    "~followup_annotations": [
      "@@@STEP_FAILURE@@@"
    ]
  },
  {
    "cmd": [
      "git",
      "ls-remote",
      "-t",
      "https://go.repo/dep"
    ],
    "cwd": "None",
    "env": {
      "CIPD_CACHE_DIR": "[CLEANUP]/tmp_tmp_1",
      "GOARCH": "amd64",
      "GOOS": "linux",
      "_3PP_CIPD_PACKAGE_NAME": "pkg/dep",
      "_3PP_PLATFORM": "linux-amd64",
      "_3PP_TOOL_PLATFORM": "linux-amd64"
    },
    "infra_step": true,
    "name": "building pkg/dep.git ls-remote",
    "~followup_annotations": [
      "@@@STEP_NEST_LEVEL@1@@@",
      "@@@STEP_TEXT@resolved version: 1.5.0-rc1@@@"
    ]
  },
  {
    "cmd": [
      "cipd",
      "describe",
      "3pp/pkg/dep/linux-amd64",
      "-version",
      "version:2@1.5.0-rc1",
      "-json-output",
      "/path/to/tmp/json"
    ],
    "env": {
      "CIPD_CACHE_DIR": "[CLEANUP]/tmp_tmp_1",
      "GOARCH": "amd64",
      "GOOS": "linux",
      "_3PP_CIPD_PACKAGE_NAME": "pkg/dep",
      "_3PP_PLATFORM": "linux-amd64",
      "_3PP_TOOL_PLATFORM": "linux-amd64"
    },
    "name": "building pkg/dep.cipd describe 3pp/pkg/dep/linux-amd64",
    "~followup_annotations": [
      "@@@STEP_NEST_LEVEL@1@@@",
      "@@@STEP_TEXT@tag 'version:2@1.5.0-rc1' not found@@@",
      "@@@STEP_LOG_LINE@json.output@{@@@",
      "@@@STEP_LOG_LINE@json.output@  \"error\": \"no such tag\", @@@",
      "@@@STEP_LOG_LINE@json.output@  \"result\": null@@@",
      "@@@STEP_LOG_LINE@json.output@}@@@",
      "@@@STEP_LOG_END@json.output@@@"
    ]
  },
  {
    "cmd": [
      "vpython3",
      "-u",
      "RECIPE_MODULE[recipe_engine::file]/resources/fileutil.py",
      "--json-output",
      "/path/to/tmp/json",
      "ensure-directory",
      "--mode",
      "0777",
      "[START_DIR]/3pp/wd/pkg/dep/linux-amd64/1.5.0-rc1"
    ],
    "env": {
      "CIPD_CACHE_DIR": "[CLEANUP]/tmp_tmp_1",
      "GOARCH": "amd64",
      "GOOS": "linux",
      "_3PP_CIPD_PACKAGE_NAME": "pkg/dep",
      "_3PP_PLATFORM": "linux-amd64",
      "_3PP_TOOL_PLATFORM": "linux-amd64",
      "_3PP_VERSION": "1.5.0-rc1"
    },
    "infra_step": true,
    "name": "building pkg/dep.mkdir -p [workdir]",
    "~followup_annotations": [
      "@@@STEP_NEST_LEVEL@1@@@"
    ]
  },
  {
    "cmd": [],
    "name": "building pkg/dep.fetch sources",
    "~followup_annotations": [
      "@@@STEP_NEST_LEVEL@1@@@"
    ]
  },
  {
    "cmd": [
      "cipd",
      "describe",
      "3pp/sources/git/go.repo/dep",
      "-version",
      "version:2@1.5.0-rc1",
      "-json-output",
      "/path/to/tmp/json"
    ],
    "env": {
      "CIPD_CACHE_DIR": "[CLEANUP]/tmp_tmp_1",
      "GOARCH": "amd64",
      "GOOS": "linux",
      "_3PP_CIPD_PACKAGE_NAME": "pkg/dep",
      "_3PP_PLATFORM": "linux-amd64",
      "_3PP_TOOL_PLATFORM": "linux-amd64",
      "_3PP_VERSION": "1.5.0-rc1"
    },
    "name": "building pkg/dep.fetch sources.cipd describe 3pp/sources/git/go.repo/dep",
    "~followup_annotations": [
      "@@@STEP_NEST_LEVEL@2@@@",
      "@@@STEP_LOG_LINE@json.output@{@@@",
      "@@@STEP_LOG_LINE@json.output@  \"error\": \"no such tag\", @@@",
      "@@@STEP_LOG_LINE@json.output@  \"result\": null@@@",
      "@@@STEP_LOG_LINE@json.output@}@@@",
      "@@@STEP_LOG_END@json.output@@@"
    ]
  },
  {
    "cmd": [
      "vpython3",
      "-u",
      "RECIPE_MODULE[recipe_engine::file]/resources/fileutil.py",
      "--json-output",
      "/path/to/tmp/json",
      "ensure-directory",
      "--mode",
      "0777",
      "[START_DIR]/3pp/wd/pkg/dep/linux-amd64/1.5.0-rc1/checkout"
    ],
    "env": {
      "CIPD_CACHE_DIR": "[CLEANUP]/tmp_tmp_1",
      "GOARCH": "amd64",
      "GOOS": "linux",
      "_3PP_CIPD_PACKAGE_NAME": "pkg/dep",
      "_3PP_PLATFORM": "linux-amd64",
      "_3PP_TOOL_PLATFORM": "linux-amd64",
      "_3PP_VERSION": "1.5.0-rc1"
    },
    "infra_step": true,
    "name": "building pkg/dep.fetch sources.mkdir -p [workdir]/checkout/",
    "~followup_annotations": [
      "@@@STEP_NEST_LEVEL@2@@@"
    ]
  },
  {
    "cmd": [
      "cipd",
      "describe",
      "3pp/sources/git/go.repo/dep",
      "-version",
      "version:2@1.5.0-rc1",
      "-json-output",
      "/path/to/tmp/json"
    ],
    "env": {
      "CIPD_CACHE_DIR": "[CLEANUP]/tmp_tmp_1",
      "GOARCH": "amd64",
      "GOOS": "linux",
      "_3PP_CIPD_PACKAGE_NAME": "pkg/dep",
      "_3PP_PLATFORM": "linux-amd64",
      "_3PP_TOOL_PLATFORM": "linux-amd64",
      "_3PP_VERSION": "1.5.0-rc1"
    },
    "name": "building pkg/dep.fetch sources.cipd describe 3pp/sources/git/go.repo/dep (2)",
    "~followup_annotations": [
      "@@@STEP_NEST_LEVEL@2@@@",
      "@@@STEP_TEXT@tag 'version:2@1.5.0-rc1' not found@@@",
      "@@@STEP_LOG_LINE@json.output@{@@@",
      "@@@STEP_LOG_LINE@json.output@  \"error\": \"no such tag\", @@@",
      "@@@STEP_LOG_LINE@json.output@  \"result\": null@@@",
      "@@@STEP_LOG_LINE@json.output@}@@@",
      "@@@STEP_LOG_END@json.output@@@"
    ]
  },
  {
    "cmd": [
      "python3",
      "-u",
      "RECIPE_MODULE[depot_tools::git]/resources/git_setup.py",
      "--path",
      "[START_DIR]/3pp/wd/pkg/dep/linux-amd64/1.5.0-rc1/checkout",
      "--url",
      "https://go.repo/dep"
    ],
    "env": {
      "CIPD_CACHE_DIR": "[CLEANUP]/tmp_tmp_1",
      "GOARCH": "amd64",
      "GOOS": "linux",
      "_3PP_CIPD_PACKAGE_NAME": "pkg/dep",
      "_3PP_PLATFORM": "linux-amd64",
      "_3PP_TOOL_PLATFORM": "linux-amd64",
      "_3PP_VERSION": "1.5.0-rc1"
    },
    "name": "building pkg/dep.fetch sources.git setup",
    "~followup_annotations": [
      "@@@STEP_NEST_LEVEL@2@@@"
    ]
  },
  {
    "cmd": [
      "git",
      "fetch",
      "origin",
      "hash",
      "--progress",
      "--tags"
    ],
    "cwd": "[START_DIR]/3pp/wd/pkg/dep/linux-amd64/1.5.0-rc1/checkout",
    "env": {
      "CIPD_CACHE_DIR": "[CLEANUP]/tmp_tmp_1",
      "GOARCH": "amd64",
      "GOOS": "linux",
      "PATH": "RECIPE_REPO[depot_tools]:<PATH>",
      "_3PP_CIPD_PACKAGE_NAME": "pkg/dep",
      "_3PP_PLATFORM": "linux-amd64",
      "_3PP_TOOL_PLATFORM": "linux-amd64",
      "_3PP_VERSION": "1.5.0-rc1"
    },
    "infra_step": true,
    "name": "building pkg/dep.fetch sources.git fetch",
    "~followup_annotations": [
      "@@@STEP_NEST_LEVEL@2@@@"
    ]
  },
  {
    "cmd": [
      "git",
      "checkout",
      "-f",
      "FETCH_HEAD"
    ],
    "cwd": "[START_DIR]/3pp/wd/pkg/dep/linux-amd64/1.5.0-rc1/checkout",
    "env": {
      "CIPD_CACHE_DIR": "[CLEANUP]/tmp_tmp_1",
      "GOARCH": "amd64",
      "GOOS": "linux",
      "_3PP_CIPD_PACKAGE_NAME": "pkg/dep",
      "_3PP_PLATFORM": "linux-amd64",
      "_3PP_TOOL_PLATFORM": "linux-amd64",
      "_3PP_VERSION": "1.5.0-rc1"
    },
    "infra_step": true,
    "name": "building pkg/dep.fetch sources.git checkout",
    "~followup_annotations": [
      "@@@STEP_NEST_LEVEL@2@@@"
    ]
  },
  {
    "cmd": [
      "git",
      "rev-parse",
      "HEAD"
    ],
    "cwd": "[START_DIR]/3pp/wd/pkg/dep/linux-amd64/1.5.0-rc1/checkout",
    "env": {
      "CIPD_CACHE_DIR": "[CLEANUP]/tmp_tmp_1",
      "GOARCH": "amd64",
      "GOOS": "linux",
      "_3PP_CIPD_PACKAGE_NAME": "pkg/dep",
      "_3PP_PLATFORM": "linux-amd64",
      "_3PP_TOOL_PLATFORM": "linux-amd64",
      "_3PP_VERSION": "1.5.0-rc1"
    },
    "infra_step": true,
    "name": "building pkg/dep.fetch sources.read revision",
    "~followup_annotations": [
      "@@@STEP_NEST_LEVEL@2@@@",
      "@@@STEP_TEXT@<br/>checked out 'deadbeef'<br/>@@@"
    ]
  },
  {
    "cmd": [
      "git",
      "clean",
      "-f",
      "-d",
      "-x"
    ],
    "cwd": "[START_DIR]/3pp/wd/pkg/dep/linux-amd64/1.5.0-rc1/checkout",
    "env": {
      "CIPD_CACHE_DIR": "[CLEANUP]/tmp_tmp_1",
      "GOARCH": "amd64",
      "GOOS": "linux",
      "_3PP_CIPD_PACKAGE_NAME": "pkg/dep",
      "_3PP_PLATFORM": "linux-amd64",
      "_3PP_TOOL_PLATFORM": "linux-amd64",
      "_3PP_VERSION": "1.5.0-rc1"
    },
    "infra_step": true,
    "name": "building pkg/dep.fetch sources.git clean",
    "~followup_annotations": [
      "@@@STEP_NEST_LEVEL@2@@@"
    ]
  },
  {
    "cmd": [
      "git",
      "submodule",
      "sync"
    ],
    "cwd": "[START_DIR]/3pp/wd/pkg/dep/linux-amd64/1.5.0-rc1/checkout",
    "env": {
      "CIPD_CACHE_DIR": "[CLEANUP]/tmp_tmp_1",
      "GOARCH": "amd64",
      "GOOS": "linux",
      "_3PP_CIPD_PACKAGE_NAME": "pkg/dep",
      "_3PP_PLATFORM": "linux-amd64",
      "_3PP_TOOL_PLATFORM": "linux-amd64",
      "_3PP_VERSION": "1.5.0-rc1"
    },
    "infra_step": true,
    "name": "building pkg/dep.fetch sources.submodule sync",
    "~followup_annotations": [
      "@@@STEP_NEST_LEVEL@2@@@"
    ]
  },
  {
    "cmd": [
      "git",
      "submodule",
      "update",
      "--init",
      "--recursive"
    ],
    "cwd": "[START_DIR]/3pp/wd/pkg/dep/linux-amd64/1.5.0-rc1/checkout",
    "env": {
      "CIPD_CACHE_DIR": "[CLEANUP]/tmp_tmp_1",
      "GOARCH": "amd64",
      "GOOS": "linux",
      "_3PP_CIPD_PACKAGE_NAME": "pkg/dep",
      "_3PP_PLATFORM": "linux-amd64",
      "_3PP_TOOL_PLATFORM": "linux-amd64",
      "_3PP_VERSION": "1.5.0-rc1"
    },
    "infra_step": true,
    "name": "building pkg/dep.fetch sources.submodule update",
    "~followup_annotations": [
      "@@@STEP_NEST_LEVEL@2@@@"
    ]
  },
  {
    "cmd": [
      "cipd",
      "pkg-build",
      "-pkg-def",
      "{\"data\": [{\"dir\": \".\", \"exclude\": [\"\\\\.git\"]}], \"install_mode\": \"copy\", \"package\": \"3pp/sources/git/go.repo/dep\", \"preserve_writable\": true, \"root\": \"[START_DIR]/3pp/wd/pkg/dep/linux-amd64/1.5.0-rc1/checkout\"}",
      "-out",
      "[CLEANUP]/tmp_tmp_2",
      "-hash-algo",
      "sha256",
      "-json-output",
      "/path/to/tmp/json"
    ],
    "env": {
      "CIPD_CACHE_DIR": "[CLEANUP]/tmp_tmp_1",
      "GOARCH": "amd64",
      "GOOS": "linux",
      "_3PP_CIPD_PACKAGE_NAME": "pkg/dep",
      "_3PP_PLATFORM": "linux-amd64",
      "_3PP_TOOL_PLATFORM": "linux-amd64",
      "_3PP_VERSION": "1.5.0-rc1"
    },
    "name": "building pkg/dep.fetch sources.build 3pp/sources/git/go.repo/dep",
    "~followup_annotations": [
      "@@@STEP_NEST_LEVEL@2@@@",
      "@@@STEP_LOG_LINE@json.output@{@@@",
      "@@@STEP_LOG_LINE@json.output@  \"result\": {@@@",
      "@@@STEP_LOG_LINE@json.output@    \"instance_id\": \"40-chars-fake-of-the-package-instance_id\", @@@",
      "@@@STEP_LOG_LINE@json.output@    \"package\": \"3pp/sources/git/go.repo/dep\"@@@",
      "@@@STEP_LOG_LINE@json.output@  }@@@",
      "@@@STEP_LOG_LINE@json.output@}@@@",
      "@@@STEP_LOG_END@json.output@@@"
    ]
  },
  {
    "cmd": [
      "vpython3",
      "-u",
      "RECIPE_MODULE[recipe_engine::file]/resources/fileutil.py",
      "--json-output",
      "/path/to/tmp/json",
      "ensure-directory",
      "--mode",
      "0777",
      "[CACHE]/3pp_cipd/3pp/sources/git/go.repo/dep"
    ],
    "env": {
      "CIPD_CACHE_DIR": "[CLEANUP]/tmp_tmp_1",
      "GOARCH": "amd64",
      "GOOS": "linux",
      "_3PP_CIPD_PACKAGE_NAME": "pkg/dep",
      "_3PP_PLATFORM": "linux-amd64",
      "_3PP_TOOL_PLATFORM": "linux-amd64",
      "_3PP_VERSION": "1.5.0-rc1"
    },
    "infra_step": true,
    "name": "building pkg/dep.fetch sources.ensure cipd pkg cache exists",
    "~followup_annotations": [
      "@@@STEP_NEST_LEVEL@2@@@"
    ]
  },
  {
    "cmd": [
      "vpython3",
      "-u",
      "RECIPE_MODULE[recipe_engine::file]/resources/fileutil.py",
      "--json-output",
      "/path/to/tmp/json",
      "move",
      "[CLEANUP]/tmp_tmp_2",
      "[CACHE]/3pp_cipd/3pp/sources/git/go.repo/dep/40-chars-fake-of-the-package-instance_id"
    ],
    "env": {
      "CIPD_CACHE_DIR": "[CLEANUP]/tmp_tmp_1",
      "GOARCH": "amd64",
      "GOOS": "linux",
      "_3PP_CIPD_PACKAGE_NAME": "pkg/dep",
      "_3PP_PLATFORM": "linux-amd64",
      "_3PP_TOOL_PLATFORM": "linux-amd64",
      "_3PP_VERSION": "1.5.0-rc1"
    },
    "infra_step": true,
    "name": "building pkg/dep.fetch sources.mv built cipd pkg to cache",
    "~followup_annotations": [
      "@@@STEP_NEST_LEVEL@2@@@"
    ]
  },
  {
    "cmd": [],
    "name": "building pkg/dep.fetch sources.upload source to cipd",
    "~followup_annotations": [
      "@@@STEP_NEST_LEVEL@2@@@"
    ]
  },
  {
    "cmd": [
      "cipd",
      "describe",
      "3pp/sources/git/go.repo/dep",
      "-version",
      "version:2@1.5.0-rc1",
      "-json-output",
      "/path/to/tmp/json"
    ],
    "env": {
      "CIPD_CACHE_DIR": "[CLEANUP]/tmp_tmp_1",
      "GOARCH": "amd64",
      "GOOS": "linux",
      "_3PP_CIPD_PACKAGE_NAME": "pkg/dep",
      "_3PP_PLATFORM": "linux-amd64",
      "_3PP_TOOL_PLATFORM": "linux-amd64",
      "_3PP_VERSION": "1.5.0-rc1"
    },
    "name": "building pkg/dep.fetch sources.upload source to cipd.cipd describe 3pp/sources/git/go.repo/dep",
    "~followup_annotations": [
      "@@@STEP_NEST_LEVEL@3@@@",
      "@@@STEP_TEXT@tag 'version:2@1.5.0-rc1' not found@@@",
      "@@@STEP_LOG_LINE@json.output@{@@@",
      "@@@STEP_LOG_LINE@json.output@  \"error\": \"no such tag\", @@@",
      "@@@STEP_LOG_LINE@json.output@  \"result\": null@@@",
      "@@@STEP_LOG_LINE@json.output@}@@@",
      "@@@STEP_LOG_END@json.output@@@"
    ]
  },
  {
    "cmd": [
      "cipd",
      "pkg-register",
      "[CACHE]/3pp_cipd/3pp/sources/git/go.repo/dep/40-chars-fake-of-the-package-instance_id",
      "-tag",
      "external_hash:hash",
      "-tag",
      "version:2@1.5.0-rc1",
      "-json-output",
      "/path/to/tmp/json"
    ],
    "env": {
      "CIPD_CACHE_DIR": "[CLEANUP]/tmp_tmp_1",
      "GOARCH": "amd64",
      "GOOS": "linux",
      "_3PP_CIPD_PACKAGE_NAME": "pkg/dep",
      "_3PP_PLATFORM": "linux-amd64",
      "_3PP_TOOL_PLATFORM": "linux-amd64",
      "_3PP_VERSION": "1.5.0-rc1"
    },
    "name": "building pkg/dep.fetch sources.upload source to cipd.register 3pp/sources/git/go.repo/dep",
    "~followup_annotations": [
      "@@@STEP_NEST_LEVEL@3@@@",
      "@@@STEP_LOG_LINE@json.output@{@@@",
      "@@@STEP_LOG_LINE@json.output@  \"result\": {@@@",
      "@@@STEP_LOG_LINE@json.output@    \"instance_id\": \"40-chars-fake-of-the-package-instance_id\", @@@",
      "@@@STEP_LOG_LINE@json.output@    \"package\": \"3pp/sources/git/go.repo/dep\"@@@",
      "@@@STEP_LOG_LINE@json.output@  }@@@",
      "@@@STEP_LOG_LINE@json.output@}@@@",
      "@@@STEP_LOG_END@json.output@@@",
      "@@@STEP_LINK@3pp/sources/git/go.repo/dep@https://chrome-infra-packages.appspot.com/p/3pp/sources/git/go.repo/dep/+/40-chars-fake-of-the-package-instance_id@@@"
    ]
  },
  {
    "cmd": [
      "vpython3",
      "-u",
      "RECIPE_MODULE[recipe_engine::file]/resources/fileutil.py",
      "--json-output",
      "/path/to/tmp/json",
      "copytree",
      "[CACHE]/builder/package_repo/dep",
      "[START_DIR]/3pp/wd/pkg/dep/linux-amd64/1.5.0-rc1/checkout/.3pp/pkg/dep"
    ],
    "env": {
      "CIPD_CACHE_DIR": "[CLEANUP]/tmp_tmp_1",
      "GOARCH": "amd64",
      "GOOS": "linux",
      "_3PP_CIPD_PACKAGE_NAME": "pkg/dep",
      "_3PP_PLATFORM": "linux-amd64",
      "_3PP_TOOL_PLATFORM": "linux-amd64",
      "_3PP_VERSION": "1.5.0-rc1"
    },
    "infra_step": true,
    "name": "building pkg/dep.fetch sources.copy package definition pkg/dep",
    "~followup_annotations": [
      "@@@STEP_NEST_LEVEL@2@@@"
    ]
  },
  {
    "cmd": [],
    "name": "building pkg/dep.run installation",
    "~followup_annotations": [
      "@@@STEP_NEST_LEVEL@1@@@",
      "@@@STEP_FAILURE@@@"
    ]
  },
  {
    "cmd": [
      "vpython3",
      "-u",
      "RECIPE_MODULE[recipe_engine::file]/resources/fileutil.py",
      "--json-output",
      "/path/to/tmp/json",
      "ensure-directory",
      "--mode",
      "0777",
      "[START_DIR]/3pp/wd/pkg/dep/linux-amd64/1.5.0-rc1/out"
    ],
    "env": {
      "CIPD_CACHE_DIR": "[CLEANUP]/tmp_tmp_1",
      "GOARCH": "amd64",
      "GOOS": "linux",
      "_3PP_CIPD_PACKAGE_NAME": "pkg/dep",
      "_3PP_PLATFORM": "linux-amd64",
      "_3PP_TOOL_PLATFORM": "linux-amd64",
      "_3PP_VERSION": "1.5.0-rc1"
    },
    "infra_step": true,
    "name": "building pkg/dep.run installation.make output dir",
    "~followup_annotations": [
      "@@@STEP_NEST_LEVEL@2@@@"
    ]
  },
  {
    "cmd": [
      "vpython3",
      "-vpython-spec",
      "RECIPE_REPO[infra]/infra/tools/dockerbuild/standalone.vpython3",
      "-u",
      "-m",
      "infra.tools.dockerbuild",
      "--logs-debug",
      "run",
      "--platform",
      "manylinux-x64-py3",
      "--workdir",
      "[START_DIR]/3pp/wd/pkg/dep/linux-amd64/1.5.0-rc1",
      "--env-prefix",
      "PATH",
      "[START_DIR]/3pp/wd/pkg/dep/linux-amd64/1.5.0-rc1/tools_prefix",
      "--env-prefix",
      "PATH",
      "[START_DIR]/3pp/wd/pkg/dep/linux-amd64/1.5.0-rc1/tools_prefix/bin",
      "--env",
      "GOARCH",
      "amd64",
      "--env",
      "GOOS",
      "linux",
      "--env",
      "_3PP_CIPD_PACKAGE_NAME",
      "pkg/dep",
      "--env",
      "_3PP_PLATFORM",
      "linux-amd64",
      "--env",
      "_3PP_TOOL_PLATFORM",
      "linux-amd64",
      "--env",
      "_3PP_VERSION",
      "1.5.0-rc1",
      "--",
      "bash",
      "[START_DIR]/3pp/wd/pkg/dep/linux-amd64/1.5.0-rc1/checkout/.3pp/pkg/dep/install.sh",
      "[START_DIR]/3pp/wd/pkg/dep/linux-amd64/1.5.0-rc1/out",
      "[START_DIR]/3pp/wd/pkg/dep/linux-amd64/1.5.0-rc1/deps_prefix"
    ],
    "cwd": "[START_DIR]/3pp/wd/pkg/dep/linux-amd64/1.5.0-rc1/checkout",
    "env": {
      "CIPD_CACHE_DIR": "[CLEANUP]/tmp_tmp_1",
      "GOARCH": "amd64",
      "GOOS": "linux",
      "PYTHONPATH": "RECIPE_REPO[infra]",
      "_3PP_CIPD_PACKAGE_NAME": "pkg/dep",
      "_3PP_PLATFORM": "linux-amd64",
      "_3PP_TOOL_PLATFORM": "linux-amd64",
      "_3PP_VERSION": "1.5.0-rc1"
    },
    "env_prefixes": {
      "PATH": [
        "[START_DIR]/3pp/wd/pkg/dep/linux-amd64/1.5.0-rc1/tools_prefix",
        "[START_DIR]/3pp/wd/pkg/dep/linux-amd64/1.5.0-rc1/tools_prefix/bin"
      ]
    },
    "name": "building pkg/dep.run installation.install.sh [START_DIR]/3pp/wd/pkg/dep/linux-amd64/1.5.0-rc1/out [START_DIR]/3pp/wd/pkg/dep/linux-amd64/1.5.0-rc1/deps_prefix",
    "~followup_annotations": [
      "@@@STEP_NEST_LEVEL@2@@@",
      "@@@STEP_FAILURE@@@"
    ]
  },
  {
    "cmd": [],
    "name": "building build_tools/tool"
  },
  {
    "cmd": [
      "cipd",
      "describe",
      "3pp/build_tools/tool/linux-amd64",
      "-version",
      "version:2@1.5.0-rc1",
      "-json-output",
      "/path/to/tmp/json"
    ],
    "env": {
      "CIPD_CACHE_DIR": "[CLEANUP]/tmp_tmp_1",
      "GOARCH": "amd64",
      "GOOS": "linux",
      "_3PP_CIPD_PACKAGE_NAME": "build_tools/tool",
      "_3PP_PLATFORM": "linux-amd64",
      "_3PP_TOOL_PLATFORM": "linux-amd64"
    },
    "name": "building build_tools/tool.cipd describe 3pp/build_tools/tool/linux-amd64",
    "~followup_annotations": [
      "@@@STEP_NEST_LEVEL@1@@@",
      "@@@STEP_TEXT@tag 'version:2@1.5.0-rc1' not found@@@",
      "@@@STEP_LOG_LINE@json.output@{@@@",
      "@@@STEP_LOG_LINE@json.output@  \"error\": \"no such tag\", @@@",
      "@@@STEP_LOG_LINE@json.output@  \"result\": null@@@",
      "@@@STEP_LOG_LINE@json.output@}@@@",
      "@@@STEP_LOG_END@json.output@@@"
    ]
  },
  {
    "cmd": [
      "vpython3",
      "-u",
      "RECIPE_MODULE[recipe_engine::file]/resources/fileutil.py",
      "--json-output",
      "/path/to/tmp/json",
      "ensure-directory",
      "--mode",
      "0777",
      "[START_DIR]/3pp/wd/build_tools/tool/linux-amd64/1.5.0-rc1"
    ],
    "env": {
      "CIPD_CACHE_DIR": "[CLEANUP]/tmp_tmp_1",
      "GOARCH": "amd64",
      "GOOS": "linux",
      "_3PP_CIPD_PACKAGE_NAME": "build_tools/tool",
      "_3PP_PLATFORM": "linux-amd64",
      "_3PP_TOOL_PLATFORM": "linux-amd64",
      "_3PP_VERSION": "1.5.0-rc1"
    },
    "infra_step": true,
    "name": "building build_tools/tool.mkdir -p [workdir]",
    "~followup_annotations": [
      "@@@STEP_NEST_LEVEL@1@@@"
    ]
  },
  {
    "cmd": [],
    "name": "building build_tools/tool.fetch sources",
    "~followup_annotations": [
      "@@@STEP_NEST_LEVEL@1@@@"
    ]
  },
  {
    "cmd": [],
    "name": "building build_tools/tool.fetch sources.installing tools",
    "~followup_annotations": [
      "@@@STEP_NEST_LEVEL@2@@@"
    ]
  },
  {
    "cmd": [],
    "name": "building build_tools/tool.fetch sources.installing tools.building pkg/dep",
    "~followup_annotations": [
      "@@@STEP_NEST_LEVEL@3@@@"
    ]
  },
  {
    "cmd": [
      "git",
      "ls-remote",
      "-t",
      "https://go.repo/dep"
    ],
    "cwd": "[START_DIR]/3pp/wd/pkg/dep/linux-amd64/1.5.0-rc1/checkout",
    "env": {
      "CIPD_CACHE_DIR": "[CLEANUP]/tmp_tmp_1",
      "GOARCH": "amd64",
      "GOOS": "linux",
      "_3PP_CIPD_PACKAGE_NAME": "pkg/dep",
      "_3PP_PLATFORM": "linux-amd64",
      "_3PP_TOOL_PLATFORM": "linux-amd64",
      "_3PP_VERSION": "1.5.0-rc1"
    },
    "infra_step": true,
    "name": "building build_tools/tool.fetch sources.installing tools.building pkg/dep.git ls-remote",
    "~followup_annotations": [
      "@@@STEP_NEST_LEVEL@4@@@",
      "@@@STEP_TEXT@resolved version: 1.5.0-rc1@@@"
    ]
  },
  {
    "cmd": [
      "cipd",
      "describe",
      "3pp/pkg/dep/linux-amd64",
      "-version",
      "version:2@1.5.0-rc1",
      "-json-output",
      "/path/to/tmp/json"
    ],
    "env": {
      "CIPD_CACHE_DIR": "[CLEANUP]/tmp_tmp_1",
      "GOARCH": "amd64",
      "GOOS": "linux",
      "_3PP_CIPD_PACKAGE_NAME": "pkg/dep",
      "_3PP_PLATFORM": "linux-amd64",
      "_3PP_TOOL_PLATFORM": "linux-amd64",
      "_3PP_VERSION": "1.5.0-rc1"
    },
    "name": "building build_tools/tool.fetch sources.installing tools.building pkg/dep.cipd describe 3pp/pkg/dep/linux-amd64",
    "~followup_annotations": [
      "@@@STEP_NEST_LEVEL@4@@@",
      "@@@STEP_TEXT@found 'resolved-instance_id-of-version:1.5.0-rc'@@@",
      "@@@STEP_LOG_LINE@json.output@{@@@",
      "@@@STEP_LOG_LINE@json.output@  \"result\": {@@@",
      "@@@STEP_LOG_LINE@json.output@    \"pin\": {@@@",
      "@@@STEP_LOG_LINE@json.output@      \"instance_id\": \"resolved-instance_id-of-version:1.5.0-rc\", @@@",
      "@@@STEP_LOG_LINE@json.output@      \"package\": \"3pp/pkg/dep/linux-amd64\"@@@",
      "@@@STEP_LOG_LINE@json.output@    }, @@@",
      "@@@STEP_LOG_LINE@json.output@    \"refs\": [@@@",
      "@@@STEP_LOG_LINE@json.output@      {@@@",
      "@@@STEP_LOG_LINE@json.output@        \"instance_id\": \"resolved-instance_id-of-latest----------\", @@@",
      "@@@STEP_LOG_LINE@json.output@        \"modified_by\": \"user:44-blablbla@developer.gserviceaccount.com\", @@@",
      "@@@STEP_LOG_LINE@json.output@        \"modified_ts\": 1446574210, @@@",
      "@@@STEP_LOG_LINE@json.output@        \"ref\": \"latest\"@@@",
      "@@@STEP_LOG_LINE@json.output@      }@@@",
      "@@@STEP_LOG_LINE@json.output@    ], @@@",
      "@@@STEP_LOG_LINE@json.output@    \"registered_by\": \"user:44-blablbla@developer.gserviceaccount.com\", @@@",
      "@@@STEP_LOG_LINE@json.output@    \"registered_ts\": 1446574210, @@@",
      "@@@STEP_LOG_LINE@json.output@    \"tags\": [@@@",
      "@@@STEP_LOG_LINE@json.output@      {@@@",
      "@@@STEP_LOG_LINE@json.output@        \"registered_by\": \"user:44-blablbla@developer.gserviceaccount.com\", @@@",
      "@@@STEP_LOG_LINE@json.output@        \"registered_ts\": 1446574210, @@@",
      "@@@STEP_LOG_LINE@json.output@        \"tag\": \"version:1.5.0-rc1\"@@@",
      "@@@STEP_LOG_LINE@json.output@      }@@@",
      "@@@STEP_LOG_LINE@json.output@    ]@@@",
      "@@@STEP_LOG_LINE@json.output@  }@@@",
      "@@@STEP_LOG_LINE@json.output@}@@@",
      "@@@STEP_LOG_END@json.output@@@"
    ]
  },
  {
    "cmd": [
      "cipd",
      "pkg-fetch",
      "3pp/pkg/dep/linux-amd64",
      "-version",
      "version:2@1.5.0-rc1",
      "-out",
      "[CLEANUP]/tmp_tmp_3",
      "-json-output",
      "/path/to/tmp/json"
    ],
    "env": {
      "CIPD_CACHE_DIR": "[CLEANUP]/tmp_tmp_1",
      "GOARCH": "amd64",
      "GOOS": "linux",
      "_3PP_CIPD_PACKAGE_NAME": "build_tools/tool",
      "_3PP_PLATFORM": "linux-amd64",
      "_3PP_TOOL_PLATFORM": "linux-amd64",
      "_3PP_VERSION": "1.5.0-rc1"
    },
    "name": "building build_tools/tool.fetch sources.installing tools.cipd pkg-fetch 3pp/pkg/dep/linux-amd64",
    "~followup_annotations": [
      "@@@STEP_NEST_LEVEL@3@@@",
      "@@@STEP_TEXT@3pp/pkg/dep/linux-amd64 resolved-instance_id-of-version:2@1.5.0-@@@",
      "@@@STEP_LOG_LINE@json.output@{@@@",
      "@@@STEP_LOG_LINE@json.output@  \"result\": {@@@",
      "@@@STEP_LOG_LINE@json.output@    \"instance_id\": \"resolved-instance_id-of-version:2@1.5.0-\", @@@",
      "@@@STEP_LOG_LINE@json.output@    \"package\": \"3pp/pkg/dep/linux-amd64\"@@@",
      "@@@STEP_LOG_LINE@json.output@  }@@@",
      "@@@STEP_LOG_LINE@json.output@}@@@",
      "@@@STEP_LOG_END@json.output@@@"
    ]
  },
  {
    "cmd": [
      "vpython3",
      "-u",
      "RECIPE_MODULE[recipe_engine::file]/resources/fileutil.py",
      "--json-output",
      "/path/to/tmp/json",
      "ensure-directory",
      "--mode",
      "0777",
      "[CACHE]/3pp_cipd/3pp/pkg/dep/linux-amd64"
    ],
    "env": {
      "CIPD_CACHE_DIR": "[CLEANUP]/tmp_tmp_1",
      "GOARCH": "amd64",
      "GOOS": "linux",
      "_3PP_CIPD_PACKAGE_NAME": "build_tools/tool",
      "_3PP_PLATFORM": "linux-amd64",
      "_3PP_TOOL_PLATFORM": "linux-amd64",
      "_3PP_VERSION": "1.5.0-rc1"
    },
    "infra_step": true,
    "name": "building build_tools/tool.fetch sources.installing tools.ensure cipd package cache exists",
    "~followup_annotations": [
      "@@@STEP_NEST_LEVEL@3@@@"
    ]
  },
  {
    "cmd": [
      "vpython3",
      "-u",
      "RECIPE_MODULE[recipe_engine::file]/resources/fileutil.py",
      "--json-output",
      "/path/to/tmp/json",
      "move",
      "[CLEANUP]/tmp_tmp_3",
      "[CACHE]/3pp_cipd/3pp/pkg/dep/linux-amd64/resolved-instance_id-of-version:2@1.5.0-"
    ],
    "env": {
      "CIPD_CACHE_DIR": "[CLEANUP]/tmp_tmp_1",
      "GOARCH": "amd64",
      "GOOS": "linux",
      "_3PP_CIPD_PACKAGE_NAME": "build_tools/tool",
      "_3PP_PLATFORM": "linux-amd64",
      "_3PP_TOOL_PLATFORM": "linux-amd64",
      "_3PP_VERSION": "1.5.0-rc1"
    },
    "infra_step": true,
    "name": "building build_tools/tool.fetch sources.installing tools.move fetched cipd package to cache",
    "~followup_annotations": [
      "@@@STEP_NEST_LEVEL@3@@@"
    ]
  },
  {
    "cmd": [
      "cipd",
      "pkg-deploy",
      "[CACHE]/3pp_cipd/3pp/pkg/dep/linux-amd64/resolved-instance_id-of-version:2@1.5.0-",
      "-root",
      "[START_DIR]/3pp/wd/build_tools/tool/linux-amd64/1.5.0-rc1/tools_prefix",
      "-json-output",
      "/path/to/tmp/json"
    ],
    "env": {
      "CIPD_CACHE_DIR": "[CLEANUP]/tmp_tmp_1",
      "GOARCH": "amd64",
      "GOOS": "linux",
      "_3PP_CIPD_PACKAGE_NAME": "build_tools/tool",
      "_3PP_PLATFORM": "linux-amd64",
      "_3PP_TOOL_PLATFORM": "linux-amd64",
      "_3PP_VERSION": "1.5.0-rc1"
    },
    "name": "building build_tools/tool.fetch sources.installing tools.cipd pkg-deploy [CACHE]/3pp_cipd/3pp/pkg/dep/linux-amd64/resolved-instance_id-of-version:2@1.5.0-",
    "~followup_annotations": [
      "@@@STEP_NEST_LEVEL@3@@@",
      "@@@STEP_LOG_LINE@json.output@{@@@",
      "@@@STEP_LOG_LINE@json.output@  \"result\": {@@@",
      "@@@STEP_LOG_LINE@json.output@    \"instance_id\": \"resolved-instance_id-of-version/of/resol\", @@@",
      "@@@STEP_LOG_LINE@json.output@    \"package\": \"pkg/name/of/resolved-instance_id-of-version:2@1.5.0-\"@@@",
      "@@@STEP_LOG_LINE@json.output@  }@@@",
      "@@@STEP_LOG_LINE@json.output@}@@@",
      "@@@STEP_LOG_END@json.output@@@"
    ]
  },
  {
    "cmd": [
      "vpython3",
      "-u",
      "RECIPE_MODULE[recipe_engine::file]/resources/fileutil.py",
      "--json-output",
      "/path/to/tmp/json",
      "ensure-directory",
      "--mode",
      "0777",
      "[START_DIR]/3pp/wd/build_tools/tool/linux-amd64/1.5.0-rc1/checkout"
    ],
    "env": {
      "CIPD_CACHE_DIR": "[CLEANUP]/tmp_tmp_1",
      "GOARCH": "amd64",
      "GOOS": "linux",
      "_3PP_CIPD_PACKAGE_NAME": "build_tools/tool",
      "_3PP_PLATFORM": "linux-amd64",
      "_3PP_TOOL_PLATFORM": "linux-amd64",
      "_3PP_VERSION": "1.5.0-rc1"
    },
    "infra_step": true,
    "name": "building build_tools/tool.fetch sources.mkdir -p [workdir]/checkout/",
    "~followup_annotations": [
      "@@@STEP_NEST_LEVEL@2@@@"
    ]
  },
  {
    "cmd": [
      "cipd",
      "describe",
      "3pp/sources/git/go.repo/tool",
      "-version",
      "version:2@1.5.0-rc1",
      "-json-output",
      "/path/to/tmp/json"
    ],
    "env": {
      "CIPD_CACHE_DIR": "[CLEANUP]/tmp_tmp_1",
      "GOARCH": "amd64",
      "GOOS": "linux",
      "_3PP_CIPD_PACKAGE_NAME": "build_tools/tool",
      "_3PP_PLATFORM": "linux-amd64",
      "_3PP_TOOL_PLATFORM": "linux-amd64",
      "_3PP_VERSION": "1.5.0-rc1"
    },
    "name": "building build_tools/tool.fetch sources.cipd describe 3pp/sources/git/go.repo/tool",
    "~followup_annotations": [
      "@@@STEP_NEST_LEVEL@2@@@",
      "@@@STEP_TEXT@tag 'version:2@1.5.0-rc1' not found@@@",
      "@@@STEP_LOG_LINE@json.output@{@@@",
      "@@@STEP_LOG_LINE@json.output@  \"error\": \"no such tag\", @@@",
      "@@@STEP_LOG_LINE@json.output@  \"result\": null@@@",
      "@@@STEP_LOG_LINE@json.output@}@@@",
      "@@@STEP_LOG_END@json.output@@@"
    ]
  },
  {
    "cmd": [
      "python3",
      "-u",
      "RECIPE_MODULE[depot_tools::git]/resources/git_setup.py",
      "--path",
      "[START_DIR]/3pp/wd/build_tools/tool/linux-amd64/1.5.0-rc1/checkout",
      "--url",
      "https://go.repo/tool"
    ],
    "env": {
      "CIPD_CACHE_DIR": "[CLEANUP]/tmp_tmp_1",
      "GOARCH": "amd64",
      "GOOS": "linux",
      "_3PP_CIPD_PACKAGE_NAME": "build_tools/tool",
      "_3PP_PLATFORM": "linux-amd64",
      "_3PP_TOOL_PLATFORM": "linux-amd64",
      "_3PP_VERSION": "1.5.0-rc1"
    },
    "name": "building build_tools/tool.fetch sources.git setup",
    "~followup_annotations": [
      "@@@STEP_NEST_LEVEL@2@@@"
    ]
  },
  {
    "cmd": [
      "git",
      "fetch",
      "origin",
      "main",
      "--progress",
      "--tags"
    ],
    "cwd": "[START_DIR]/3pp/wd/build_tools/tool/linux-amd64/1.5.0-rc1/checkout",
    "env": {
      "CIPD_CACHE_DIR": "[CLEANUP]/tmp_tmp_1",
      "GOARCH": "amd64",
      "GOOS": "linux",
      "PATH": "RECIPE_REPO[depot_tools]:<PATH>",
      "_3PP_CIPD_PACKAGE_NAME": "build_tools/tool",
      "_3PP_PLATFORM": "linux-amd64",
      "_3PP_TOOL_PLATFORM": "linux-amd64",
      "_3PP_VERSION": "1.5.0-rc1"
    },
    "infra_step": true,
    "name": "building build_tools/tool.fetch sources.git fetch",
    "~followup_annotations": [
      "@@@STEP_NEST_LEVEL@2@@@"
    ]
  },
  {
    "cmd": [
      "git",
      "checkout",
      "-f",
      "FETCH_HEAD"
    ],
    "cwd": "[START_DIR]/3pp/wd/build_tools/tool/linux-amd64/1.5.0-rc1/checkout",
    "env": {
      "CIPD_CACHE_DIR": "[CLEANUP]/tmp_tmp_1",
      "GOARCH": "amd64",
      "GOOS": "linux",
      "_3PP_CIPD_PACKAGE_NAME": "build_tools/tool",
      "_3PP_PLATFORM": "linux-amd64",
      "_3PP_TOOL_PLATFORM": "linux-amd64",
      "_3PP_VERSION": "1.5.0-rc1"
    },
    "infra_step": true,
    "name": "building build_tools/tool.fetch sources.git checkout",
    "~followup_annotations": [
      "@@@STEP_NEST_LEVEL@2@@@"
    ]
  },
  {
    "cmd": [
      "git",
      "rev-parse",
      "HEAD"
    ],
    "cwd": "[START_DIR]/3pp/wd/build_tools/tool/linux-amd64/1.5.0-rc1/checkout",
    "env": {
      "CIPD_CACHE_DIR": "[CLEANUP]/tmp_tmp_1",
      "GOARCH": "amd64",
      "GOOS": "linux",
      "_3PP_CIPD_PACKAGE_NAME": "build_tools/tool",
      "_3PP_PLATFORM": "linux-amd64",
      "_3PP_TOOL_PLATFORM": "linux-amd64",
      "_3PP_VERSION": "1.5.0-rc1"
    },
    "infra_step": true,
    "name": "building build_tools/tool.fetch sources.read revision",
    "~followup_annotations": [
      "@@@STEP_NEST_LEVEL@2@@@",
      "@@@STEP_TEXT@<br/>checked out 'deadbeef'<br/>@@@"
    ]
  },
  {
    "cmd": [
      "git",
      "clean",
      "-f",
      "-d",
      "-x"
    ],
    "cwd": "[START_DIR]/3pp/wd/build_tools/tool/linux-amd64/1.5.0-rc1/checkout",
    "env": {
      "CIPD_CACHE_DIR": "[CLEANUP]/tmp_tmp_1",
      "GOARCH": "amd64",
      "GOOS": "linux",
      "_3PP_CIPD_PACKAGE_NAME": "build_tools/tool",
      "_3PP_PLATFORM": "linux-amd64",
      "_3PP_TOOL_PLATFORM": "linux-amd64",
      "_3PP_VERSION": "1.5.0-rc1"
    },
    "infra_step": true,
    "name": "building build_tools/tool.fetch sources.git clean",
    "~followup_annotations": [
      "@@@STEP_NEST_LEVEL@2@@@"
    ]
  },
  {
    "cmd": [
      "git",
      "submodule",
      "sync"
    ],
    "cwd": "[START_DIR]/3pp/wd/build_tools/tool/linux-amd64/1.5.0-rc1/checkout",
    "env": {
      "CIPD_CACHE_DIR": "[CLEANUP]/tmp_tmp_1",
      "GOARCH": "amd64",
      "GOOS": "linux",
      "_3PP_CIPD_PACKAGE_NAME": "build_tools/tool",
      "_3PP_PLATFORM": "linux-amd64",
      "_3PP_TOOL_PLATFORM": "linux-amd64",
      "_3PP_VERSION": "1.5.0-rc1"
    },
    "infra_step": true,
    "name": "building build_tools/tool.fetch sources.submodule sync",
    "~followup_annotations": [
      "@@@STEP_NEST_LEVEL@2@@@"
    ]
  },
  {
    "cmd": [
      "git",
      "submodule",
      "update",
      "--init",
      "--recursive"
    ],
    "cwd": "[START_DIR]/3pp/wd/build_tools/tool/linux-amd64/1.5.0-rc1/checkout",
    "env": {
      "CIPD_CACHE_DIR": "[CLEANUP]/tmp_tmp_1",
      "GOARCH": "amd64",
      "GOOS": "linux",
      "_3PP_CIPD_PACKAGE_NAME": "build_tools/tool",
      "_3PP_PLATFORM": "linux-amd64",
      "_3PP_TOOL_PLATFORM": "linux-amd64",
      "_3PP_VERSION": "1.5.0-rc1"
    },
    "infra_step": true,
    "name": "building build_tools/tool.fetch sources.submodule update",
    "~followup_annotations": [
      "@@@STEP_NEST_LEVEL@2@@@"
    ]
  },
  {
    "cmd": [
      "cipd",
      "pkg-build",
      "-pkg-def",
      "{\"data\": [{\"dir\": \".\", \"exclude\": [\"\\\\.git\"]}], \"install_mode\": \"copy\", \"package\": \"3pp/sources/git/go.repo/tool\", \"preserve_writable\": true, \"root\": \"[START_DIR]/3pp/wd/build_tools/tool/linux-amd64/1.5.0-rc1/checkout\"}",
      "-out",
      "[CLEANUP]/tmp_tmp_4",
      "-hash-algo",
      "sha256",
      "-json-output",
      "/path/to/tmp/json"
    ],
    "env": {
      "CIPD_CACHE_DIR": "[CLEANUP]/tmp_tmp_1",
      "GOARCH": "amd64",
      "GOOS": "linux",
      "_3PP_CIPD_PACKAGE_NAME": "build_tools/tool",
      "_3PP_PLATFORM": "linux-amd64",
      "_3PP_TOOL_PLATFORM": "linux-amd64",
      "_3PP_VERSION": "1.5.0-rc1"
    },
    "name": "building build_tools/tool.fetch sources.build 3pp/sources/git/go.repo/tool",
    "~followup_annotations": [
      "@@@STEP_NEST_LEVEL@2@@@",
      "@@@STEP_LOG_LINE@json.output@{@@@",
      "@@@STEP_LOG_LINE@json.output@  \"result\": {@@@",
      "@@@STEP_LOG_LINE@json.output@    \"instance_id\": \"40-chars-fake-of-the-package-instance_id\", @@@",
      "@@@STEP_LOG_LINE@json.output@    \"package\": \"3pp/sources/git/go.repo/tool\"@@@",
      "@@@STEP_LOG_LINE@json.output@  }@@@",
      "@@@STEP_LOG_LINE@json.output@}@@@",
      "@@@STEP_LOG_END@json.output@@@"
    ]
  },
  {
    "cmd": [
      "vpython3",
      "-u",
      "RECIPE_MODULE[recipe_engine::file]/resources/fileutil.py",
      "--json-output",
      "/path/to/tmp/json",
      "ensure-directory",
      "--mode",
      "0777",
      "[CACHE]/3pp_cipd/3pp/sources/git/go.repo/tool"
    ],
    "env": {
      "CIPD_CACHE_DIR": "[CLEANUP]/tmp_tmp_1",
      "GOARCH": "amd64",
      "GOOS": "linux",
      "_3PP_CIPD_PACKAGE_NAME": "build_tools/tool",
      "_3PP_PLATFORM": "linux-amd64",
      "_3PP_TOOL_PLATFORM": "linux-amd64",
      "_3PP_VERSION": "1.5.0-rc1"
    },
    "infra_step": true,
    "name": "building build_tools/tool.fetch sources.ensure cipd pkg cache exists",
    "~followup_annotations": [
      "@@@STEP_NEST_LEVEL@2@@@"
    ]
  },
  {
    "cmd": [
      "vpython3",
      "-u",
      "RECIPE_MODULE[recipe_engine::file]/resources/fileutil.py",
      "--json-output",
      "/path/to/tmp/json",
      "move",
      "[CLEANUP]/tmp_tmp_4",
      "[CACHE]/3pp_cipd/3pp/sources/git/go.repo/tool/40-chars-fake-of-the-package-instance_id"
    ],
    "env": {
      "CIPD_CACHE_DIR": "[CLEANUP]/tmp_tmp_1",
      "GOARCH": "amd64",
      "GOOS": "linux",
      "_3PP_CIPD_PACKAGE_NAME": "build_tools/tool",
      "_3PP_PLATFORM": "linux-amd64",
      "_3PP_TOOL_PLATFORM": "linux-amd64",
      "_3PP_VERSION": "1.5.0-rc1"
    },
    "infra_step": true,
    "name": "building build_tools/tool.fetch sources.mv built cipd pkg to cache",
    "~followup_annotations": [
      "@@@STEP_NEST_LEVEL@2@@@"
    ]
  },
  {
    "cmd": [],
    "name": "building build_tools/tool.fetch sources.upload source to cipd",
    "~followup_annotations": [
      "@@@STEP_NEST_LEVEL@2@@@"
    ]
  },
  {
    "cmd": [
      "cipd",
      "describe",
      "3pp/sources/git/go.repo/tool",
      "-version",
      "version:2@1.5.0-rc1",
      "-json-output",
      "/path/to/tmp/json"
    ],
    "env": {
      "CIPD_CACHE_DIR": "[CLEANUP]/tmp_tmp_1",
      "GOARCH": "amd64",
      "GOOS": "linux",
      "_3PP_CIPD_PACKAGE_NAME": "build_tools/tool",
      "_3PP_PLATFORM": "linux-amd64",
      "_3PP_TOOL_PLATFORM": "linux-amd64",
      "_3PP_VERSION": "1.5.0-rc1"
    },
    "name": "building build_tools/tool.fetch sources.upload source to cipd.cipd describe 3pp/sources/git/go.repo/tool",
    "~followup_annotations": [
      "@@@STEP_NEST_LEVEL@3@@@",
      "@@@STEP_TEXT@tag 'version:2@1.5.0-rc1' not found@@@",
      "@@@STEP_LOG_LINE@json.output@{@@@",
      "@@@STEP_LOG_LINE@json.output@  \"error\": \"no such tag\", @@@",
      "@@@STEP_LOG_LINE@json.output@  \"result\": null@@@",
      "@@@STEP_LOG_LINE@json.output@}@@@",
      "@@@STEP_LOG_END@json.output@@@"
    ]
  },
  {
    "cmd": [
      "cipd",
      "pkg-register",
      "[CACHE]/3pp_cipd/3pp/sources/git/go.repo/tool/40-chars-fake-of-the-package-instance_id",
      "-tag",
      "version:2@1.5.0-rc1",
      "-json-output",
      "/path/to/tmp/json"
    ],
    "env": {
      "CIPD_CACHE_DIR": "[CLEANUP]/tmp_tmp_1",
      "GOARCH": "amd64",
      "GOOS": "linux",
      "_3PP_CIPD_PACKAGE_NAME": "build_tools/tool",
      "_3PP_PLATFORM": "linux-amd64",
      "_3PP_TOOL_PLATFORM": "linux-amd64",
      "_3PP_VERSION": "1.5.0-rc1"
    },
    "name": "building build_tools/tool.fetch sources.upload source to cipd.register 3pp/sources/git/go.repo/tool",
    "~followup_annotations": [
      "@@@STEP_NEST_LEVEL@3@@@",
      "@@@STEP_LOG_LINE@json.output@{@@@",
      "@@@STEP_LOG_LINE@json.output@  \"result\": {@@@",
      "@@@STEP_LOG_LINE@json.output@    \"instance_id\": \"40-chars-fake-of-the-package-instance_id\", @@@",
      "@@@STEP_LOG_LINE@json.output@    \"package\": \"3pp/sources/git/go.repo/tool\"@@@",
      "@@@STEP_LOG_LINE@json.output@  }@@@",
      "@@@STEP_LOG_LINE@json.output@}@@@",
      "@@@STEP_LOG_END@json.output@@@",
      "@@@STEP_LINK@3pp/sources/git/go.repo/tool@https://chrome-infra-packages.appspot.com/p/3pp/sources/git/go.repo/tool/+/40-chars-fake-of-the-package-instance_id@@@"
    ]
  },
  {
    "cmd": [
      "vpython3",
      "-u",
      "RECIPE_MODULE[recipe_engine::file]/resources/fileutil.py",
      "--json-output",
      "/path/to/tmp/json",
      "copytree",
      "[CACHE]/builder/package_repo/dep",
      "[START_DIR]/3pp/wd/build_tools/tool/linux-amd64/1.5.0-rc1/checkout/.3pp/pkg/dep"
    ],
    "env": {
      "CIPD_CACHE_DIR": "[CLEANUP]/tmp_tmp_1",
      "GOARCH": "amd64",
      "GOOS": "linux",
      "_3PP_CIPD_PACKAGE_NAME": "build_tools/tool",
      "_3PP_PLATFORM": "linux-amd64",
      "_3PP_TOOL_PLATFORM": "linux-amd64",
      "_3PP_VERSION": "1.5.0-rc1"
    },
    "infra_step": true,
    "name": "building build_tools/tool.fetch sources.copy package definition pkg/dep",
    "~followup_annotations": [
      "@@@STEP_NEST_LEVEL@2@@@"
    ]
  },
  {
    "cmd": [
      "vpython3",
      "-u",
      "RECIPE_MODULE[recipe_engine::file]/resources/fileutil.py",
      "--json-output",
      "/path/to/tmp/json",
      "copytree",
      "[CACHE]/builder/package_repo/tool",
      "[START_DIR]/3pp/wd/build_tools/tool/linux-amd64/1.5.0-rc1/checkout/.3pp/build_tools/tool"
    ],
    "env": {
      "CIPD_CACHE_DIR": "[CLEANUP]/tmp_tmp_1",
      "GOARCH": "amd64",
      "GOOS": "linux",
      "_3PP_CIPD_PACKAGE_NAME": "build_tools/tool",
      "_3PP_PLATFORM": "linux-amd64",
      "_3PP_TOOL_PLATFORM": "linux-amd64",
      "_3PP_VERSION": "1.5.0-rc1"
    },
    "infra_step": true,
    "name": "building build_tools/tool.fetch sources.copy package definition build_tools/tool",
    "~followup_annotations": [
      "@@@STEP_NEST_LEVEL@2@@@"
    ]
  },
  {
    "cmd": [],
    "name": "building build_tools/tool.run installation",
    "~followup_annotations": [
      "@@@STEP_NEST_LEVEL@1@@@"
    ]
  },
  {
    "cmd": [
      "vpython3",
      "-u",
      "RECIPE_MODULE[recipe_engine::file]/resources/fileutil.py",
      "--json-output",
      "/path/to/tmp/json",
      "ensure-directory",
      "--mode",
      "0777",
      "[START_DIR]/3pp/wd/build_tools/tool/linux-amd64/1.5.0-rc1/out"
    ],
    "env": {
      "CIPD_CACHE_DIR": "[CLEANUP]/tmp_tmp_1",
      "GOARCH": "amd64",
      "GOOS": "linux",
      "_3PP_CIPD_PACKAGE_NAME": "build_tools/tool",
      "_3PP_PLATFORM": "linux-amd64",
      "_3PP_TOOL_PLATFORM": "linux-amd64",
      "_3PP_VERSION": "1.5.0-rc1"
    },
    "infra_step": true,
    "name": "building build_tools/tool.run installation.make output dir",
    "~followup_annotations": [
      "@@@STEP_NEST_LEVEL@2@@@"
    ]
  },
  {
    "cmd": [
      "vpython3",
      "-vpython-spec",
      "RECIPE_REPO[infra]/infra/tools/dockerbuild/standalone.vpython3",
      "-u",
      "-m",
      "infra.tools.dockerbuild",
      "--logs-debug",
      "run",
      "--platform",
      "manylinux-x64-py3",
      "--workdir",
      "[START_DIR]/3pp/wd/build_tools/tool/linux-amd64/1.5.0-rc1",
      "--env-prefix",
      "PATH",
      "[START_DIR]/3pp/wd/build_tools/tool/linux-amd64/1.5.0-rc1/tools_prefix",
      "--env-prefix",
      "PATH",
      "[START_DIR]/3pp/wd/build_tools/tool/linux-amd64/1.5.0-rc1/tools_prefix/bin",
      "--env",
      "GOARCH",
      "amd64",
      "--env",
      "GOOS",
      "linux",
      "--env",
      "_3PP_CIPD_PACKAGE_NAME",
      "build_tools/tool",
      "--env",
      "_3PP_PLATFORM",
      "linux-amd64",
      "--env",
      "_3PP_TOOL_PLATFORM",
      "linux-amd64",
      "--env",
      "_3PP_VERSION",
      "1.5.0-rc1",
      "--",
      "bash",
      "[START_DIR]/3pp/wd/build_tools/tool/linux-amd64/1.5.0-rc1/checkout/.3pp/build_tools/tool/install.sh",
      "[START_DIR]/3pp/wd/build_tools/tool/linux-amd64/1.5.0-rc1/out",
      "[START_DIR]/3pp/wd/build_tools/tool/linux-amd64/1.5.0-rc1/deps_prefix"
    ],
    "cwd": "[START_DIR]/3pp/wd/build_tools/tool/linux-amd64/1.5.0-rc1/checkout",
    "env": {
      "CIPD_CACHE_DIR": "[CLEANUP]/tmp_tmp_1",
      "GOARCH": "amd64",
      "GOOS": "linux",
      "PYTHONPATH": "RECIPE_REPO[infra]",
      "_3PP_CIPD_PACKAGE_NAME": "build_tools/tool",
      "_3PP_PLATFORM": "linux-amd64",
      "_3PP_TOOL_PLATFORM": "linux-amd64",
      "_3PP_VERSION": "1.5.0-rc1"
    },
    "env_prefixes": {
      "PATH": [
        "[START_DIR]/3pp/wd/build_tools/tool/linux-amd64/1.5.0-rc1/tools_prefix",
        "[START_DIR]/3pp/wd/build_tools/tool/linux-amd64/1.5.0-rc1/tools_prefix/bin"
      ]
    },
    "name": "building build_tools/tool.run installation.install.sh [START_DIR]/3pp/wd/build_tools/tool/linux-amd64/1.5.0-rc1/out [START_DIR]/3pp/wd/build_tools/tool/linux-amd64/1.5.0-rc1/deps_prefix",
    "~followup_annotations": [
      "@@@STEP_NEST_LEVEL@2@@@"
    ]
  },
  {
    "cmd": [
      "vpython3",
      "-u",
      "RECIPE_MODULE[recipe_engine::file]/resources/fileutil.py",
      "--json-output",
      "/path/to/tmp/json",
      "listdir",
      "[START_DIR]/3pp/wd/build_tools/tool/linux-amd64/1.5.0-rc1/out",
      "--recursive"
    ],
    "env": {
      "CIPD_CACHE_DIR": "[CLEANUP]/tmp_tmp_1",
      "GOARCH": "amd64",
      "GOOS": "linux",
      "_3PP_CIPD_PACKAGE_NAME": "build_tools/tool",
      "_3PP_PLATFORM": "linux-amd64",
      "_3PP_TOOL_PLATFORM": "linux-amd64",
      "_3PP_VERSION": "1.5.0-rc1"
    },
    "infra_step": true,
    "name": "building build_tools/tool.List files to be packaged",
    "~followup_annotations": [
      "@@@STEP_NEST_LEVEL@1@@@",
      "@@@STEP_LOG_END@listdir@@@"
    ]
  },
  {
    "cmd": [
      "cipd",
      "pkg-build",
      "-pkg-def",
      "{\"data\": [{\"dir\": \".\", \"exclude\": []}], \"install_mode\": \"copy\", \"package\": \"3pp/build_tools/tool/linux-amd64\", \"root\": \"[START_DIR]/3pp/wd/build_tools/tool/linux-amd64/1.5.0-rc1/out\"}",
      "-out",
      "[CLEANUP]/tmp_tmp_5",
      "-hash-algo",
      "sha256",
      "-json-output",
      "/path/to/tmp/json"
    ],
    "env": {
      "CIPD_CACHE_DIR": "[CLEANUP]/tmp_tmp_1",
      "GOARCH": "amd64",
      "GOOS": "linux",
      "_3PP_CIPD_PACKAGE_NAME": "build_tools/tool",
      "_3PP_PLATFORM": "linux-amd64",
      "_3PP_TOOL_PLATFORM": "linux-amd64",
      "_3PP_VERSION": "1.5.0-rc1"
    },
    "name": "building build_tools/tool.build 3pp/build_tools/tool/linux-amd64",
    "~followup_annotations": [
      "@@@STEP_NEST_LEVEL@1@@@",
      "@@@STEP_LOG_LINE@json.output@{@@@",
      "@@@STEP_LOG_LINE@json.output@  \"result\": {@@@",
      "@@@STEP_LOG_LINE@json.output@    \"instance_id\": \"40-chars-fake-of-the-package-instance_id\", @@@",
      "@@@STEP_LOG_LINE@json.output@    \"package\": \"3pp/build_tools/tool/linux-amd64\"@@@",
      "@@@STEP_LOG_LINE@json.output@  }@@@",
      "@@@STEP_LOG_LINE@json.output@}@@@",
      "@@@STEP_LOG_END@json.output@@@"
    ]
  },
  {
    "cmd": [
      "vpython3",
      "-u",
      "RECIPE_MODULE[recipe_engine::file]/resources/fileutil.py",
      "--json-output",
      "/path/to/tmp/json",
      "ensure-directory",
      "--mode",
      "0777",
      "[CACHE]/3pp_cipd/3pp/build_tools/tool/linux-amd64"
    ],
    "env": {
      "CIPD_CACHE_DIR": "[CLEANUP]/tmp_tmp_1",
      "GOARCH": "amd64",
      "GOOS": "linux",
      "_3PP_CIPD_PACKAGE_NAME": "build_tools/tool",
      "_3PP_PLATFORM": "linux-amd64",
      "_3PP_TOOL_PLATFORM": "linux-amd64",
      "_3PP_VERSION": "1.5.0-rc1"
    },
    "infra_step": true,
    "name": "building build_tools/tool.ensure cipd pkg cache exists",
    "~followup_annotations": [
      "@@@STEP_NEST_LEVEL@1@@@"
    ]
  },
  {
    "cmd": [
      "vpython3",
      "-u",
      "RECIPE_MODULE[recipe_engine::file]/resources/fileutil.py",
      "--json-output",
      "/path/to/tmp/json",
      "move",
      "[CLEANUP]/tmp_tmp_5",
      "[CACHE]/3pp_cipd/3pp/build_tools/tool/linux-amd64/40-chars-fake-of-the-package-instance_id"
    ],
    "env": {
      "CIPD_CACHE_DIR": "[CLEANUP]/tmp_tmp_1",
      "GOARCH": "amd64",
      "GOOS": "linux",
      "_3PP_CIPD_PACKAGE_NAME": "build_tools/tool",
      "_3PP_PLATFORM": "linux-amd64",
      "_3PP_TOOL_PLATFORM": "linux-amd64",
      "_3PP_VERSION": "1.5.0-rc1"
    },
    "infra_step": true,
    "name": "building build_tools/tool.mv built cipd pkg to cache",
    "~followup_annotations": [
      "@@@STEP_NEST_LEVEL@1@@@"
    ]
  },
  {
    "cmd": [],
    "name": "building build_tools/tool.do upload",
    "~followup_annotations": [
      "@@@STEP_NEST_LEVEL@1@@@",
      "@@@STEP_LINK@40-chars-fake-of-the-package-instance_id@https://chrome-infra-packages.appspot.com/p/3pp/build_tools/tool/linux-amd64/+/40-chars-fake-of-the-package-instance_id@@@"
    ]
  },
  {
    "cmd": [
      "cipd",
      "describe",
      "3pp/build_tools/tool/linux-amd64",
      "-version",
      "version:2@1.5.0-rc1",
      "-json-output",
      "/path/to/tmp/json"
    ],
    "env": {
      "CIPD_CACHE_DIR": "[CLEANUP]/tmp_tmp_1",
      "GOARCH": "amd64",
      "GOOS": "linux",
      "_3PP_CIPD_PACKAGE_NAME": "build_tools/tool",
      "_3PP_PLATFORM": "linux-amd64",
      "_3PP_TOOL_PLATFORM": "linux-amd64",
      "_3PP_VERSION": "1.5.0-rc1"
    },
    "name": "building build_tools/tool.do upload.cipd describe 3pp/build_tools/tool/linux-amd64",
    "~followup_annotations": [
      "@@@STEP_NEST_LEVEL@2@@@",
      "@@@STEP_TEXT@tag 'version:2@1.5.0-rc1' not found@@@",
      "@@@STEP_LOG_LINE@json.output@{@@@",
      "@@@STEP_LOG_LINE@json.output@  \"error\": \"no such tag\", @@@",
      "@@@STEP_LOG_LINE@json.output@  \"result\": null@@@",
      "@@@STEP_LOG_LINE@json.output@}@@@",
      "@@@STEP_LOG_END@json.output@@@"
    ]
  },
  {
    "cmd": [
      "cipd",
      "pkg-register",
      "[CACHE]/3pp_cipd/3pp/build_tools/tool/linux-amd64/40-chars-fake-of-the-package-instance_id",
      "-tag",
      "3pp_ecosystem_hash:c2719ea17aebff53d40f52891cdc3c4758212d89987565de4a740d6c46f8deb2",
      "-tag",
      "version:2@1.5.0-rc1",
      "-json-output",
      "/path/to/tmp/json"
    ],
    "env": {
      "CIPD_CACHE_DIR": "[CLEANUP]/tmp_tmp_1",
      "GOARCH": "amd64",
      "GOOS": "linux",
      "_3PP_CIPD_PACKAGE_NAME": "build_tools/tool",
      "_3PP_PLATFORM": "linux-amd64",
      "_3PP_TOOL_PLATFORM": "linux-amd64",
      "_3PP_VERSION": "1.5.0-rc1"
    },
    "name": "building build_tools/tool.do upload.register 3pp/build_tools/tool/linux-amd64",
    "~followup_annotations": [
      "@@@STEP_NEST_LEVEL@2@@@",
      "@@@STEP_LOG_LINE@json.output@{@@@",
      "@@@STEP_LOG_LINE@json.output@  \"result\": {@@@",
      "@@@STEP_LOG_LINE@json.output@    \"instance_id\": \"40-chars-fake-of-the-package-instance_id\", @@@",
      "@@@STEP_LOG_LINE@json.output@    \"package\": \"3pp/build_tools/tool/linux-amd64\"@@@",
      "@@@STEP_LOG_LINE@json.output@  }@@@",
      "@@@STEP_LOG_LINE@json.output@}@@@",
      "@@@STEP_LOG_END@json.output@@@",
      "@@@STEP_LINK@3pp/build_tools/tool/linux-amd64@https://chrome-infra-packages.appspot.com/p/3pp/build_tools/tool/linux-amd64/+/40-chars-fake-of-the-package-instance_id@@@"
    ]
  },
  {
    "cmd": [
      "vpython3",
      "-u",
      "RECIPE_MODULE[recipe_engine::file]/resources/fileutil.py",
      "--json-output",
      "/path/to/tmp/json",
      "file_hash",
      "[CACHE]/3pp_cipd/3pp/build_tools/tool/linux-amd64/40-chars-fake-of-the-package-instance_id"
    ],
    "env": {
      "CIPD_CACHE_DIR": "[CLEANUP]/tmp_tmp_1",
      "GOARCH": "amd64",
      "GOOS": "linux",
      "_3PP_CIPD_PACKAGE_NAME": "build_tools/tool",
      "_3PP_PLATFORM": "linux-amd64",
      "_3PP_TOOL_PLATFORM": "linux-amd64",
      "_3PP_VERSION": "1.5.0-rc1"
    },
    "infra_step": true,
    "name": "building build_tools/tool.do upload.Compute file hash",
    "~followup_annotations": [
      "@@@STEP_NEST_LEVEL@2@@@",
      "@@@STEP_TEXT@Hash calculated: deadbeef@@@"
    ]
  },
  {
    "cmd": [
      "cipd",
      "ensure",
      "-root",
      "[START_DIR]/reporter",
      "-ensure-file",
      "infra/tools/security/provenance_broker/${platform} git_revision:d3cf3b0144447a77fd79c84fe8500dfe993ef602",
      "-max-threads",
      "0",
      "-json-output",
      "/path/to/tmp/json"
    ],
    "env": {
      "CIPD_CACHE_DIR": "[CLEANUP]/tmp_tmp_1",
      "GOARCH": "amd64",
      "GOOS": "linux",
      "_3PP_CIPD_PACKAGE_NAME": "build_tools/tool",
      "_3PP_PLATFORM": "linux-amd64",
      "_3PP_TOOL_PLATFORM": "linux-amd64",
      "_3PP_VERSION": "1.5.0-rc1"
    },
    "name": "building build_tools/tool.do upload.ensure_installed",
    "~followup_annotations": [
      "@@@STEP_NEST_LEVEL@2@@@",
      "@@@STEP_LOG_LINE@json.output@{@@@",
      "@@@STEP_LOG_LINE@json.output@  \"result\": {@@@",
      "@@@STEP_LOG_LINE@json.output@    \"\": [@@@",
      "@@@STEP_LOG_LINE@json.output@      {@@@",
      "@@@STEP_LOG_LINE@json.output@        \"instance_id\": \"resolved-instance_id-of-git_revision:d3c\", @@@",
      "@@@STEP_LOG_LINE@json.output@        \"package\": \"infra/tools/security/provenance_broker/resolved-platform\"@@@",
      "@@@STEP_LOG_LINE@json.output@      }@@@",
      "@@@STEP_LOG_LINE@json.output@    ]@@@",
      "@@@STEP_LOG_LINE@json.output@  }@@@",
      "@@@STEP_LOG_LINE@json.output@}@@@",
      "@@@STEP_LOG_END@json.output@@@"
    ]
  },
  {
    "cmd": [
      "[START_DIR]/reporter/snoopy_broker",
      "-report-cipd",
      "-digest",
      "deadbeef",
      "-pkg-name",
      "3pp/build_tools/tool/linux-amd64",
      "-iid",
      "40-chars-fake-of-the-package-instance_id"
    ],
    "env": {
      "CIPD_CACHE_DIR": "[CLEANUP]/tmp_tmp_1",
      "GOARCH": "amd64",
      "GOOS": "linux",
      "_3PP_CIPD_PACKAGE_NAME": "build_tools/tool",
      "_3PP_PLATFORM": "linux-amd64",
      "_3PP_TOOL_PLATFORM": "linux-amd64",
      "_3PP_VERSION": "1.5.0-rc1"
    },
    "name": "building build_tools/tool.do upload.snoop: report_cipd",
    "~followup_annotations": [
      "@@@STEP_NEST_LEVEL@2@@@"
    ]
  },
  {
    "cmd": [],
    "name": "building build_tools/tool (2)"
  },
  {
    "cmd": [
      "git",
      "ls-remote",
      "-t",
      "https://go.repo/tool"
    ],
    "cwd": "[START_DIR]/3pp/wd/pkg/dep/linux-amd64/1.5.0-rc1/checkout",
    "env": {
      "CIPD_CACHE_DIR": "[CLEANUP]/tmp_tmp_1",
      "GOARCH": "amd64",
      "GOOS": "linux",
      "_3PP_CIPD_PACKAGE_NAME": "build_tools/tool",
      "_3PP_PLATFORM": "linux-amd64",
      "_3PP_TOOL_PLATFORM": "linux-amd64"
    },
    "infra_step": true,
    "name": "building build_tools/tool (2).git ls-remote",
    "~followup_annotations": [
      "@@@STEP_NEST_LEVEL@1@@@",
      "@@@STEP_TEXT@resolved version: v1.4.1@@@"
    ]
  },
  {
    "cmd": [
      "cipd",
      "describe",
      "3pp/build_tools/tool/linux-amd64",
      "-version",
      "version:2@v1.4.1",
      "-json-output",
      "/path/to/tmp/json"
    ],
    "env": {
      "CIPD_CACHE_DIR": "[CLEANUP]/tmp_tmp_1",
      "GOARCH": "amd64",
      "GOOS": "linux",
      "_3PP_CIPD_PACKAGE_NAME": "build_tools/tool",
      "_3PP_PLATFORM": "linux-amd64",
      "_3PP_TOOL_PLATFORM": "linux-amd64"
    },
    "name": "building build_tools/tool (2).cipd describe 3pp/build_tools/tool/linux-amd64",
    "~followup_annotations": [
      "@@@STEP_NEST_LEVEL@1@@@",
      "@@@STEP_TEXT@tag 'version:2@v1.4.1' not found@@@",
      "@@@STEP_LOG_LINE@json.output@{@@@",
      "@@@STEP_LOG_LINE@json.output@  \"error\": \"no such tag\", @@@",
      "@@@STEP_LOG_LINE@json.output@  \"result\": null@@@",
      "@@@STEP_LOG_LINE@json.output@}@@@",
      "@@@STEP_LOG_END@json.output@@@"
    ]
  },
  {
    "cmd": [
      "vpython3",
      "-u",
      "RECIPE_MODULE[recipe_engine::file]/resources/fileutil.py",
      "--json-output",
      "/path/to/tmp/json",
      "ensure-directory",
      "--mode",
      "0777",
      "[START_DIR]/3pp/wd/build_tools/tool/linux-amd64/v1.4.1"
    ],
    "env": {
      "CIPD_CACHE_DIR": "[CLEANUP]/tmp_tmp_1",
      "GOARCH": "amd64",
      "GOOS": "linux",
      "_3PP_CIPD_PACKAGE_NAME": "build_tools/tool",
      "_3PP_PLATFORM": "linux-amd64",
      "_3PP_TOOL_PLATFORM": "linux-amd64",
      "_3PP_VERSION": "v1.4.1"
    },
    "infra_step": true,
    "name": "building build_tools/tool (2).mkdir -p [workdir]",
    "~followup_annotations": [
      "@@@STEP_NEST_LEVEL@1@@@"
    ]
  },
  {
    "cmd": [],
    "name": "building build_tools/tool (2).fetch sources",
    "~followup_annotations": [
      "@@@STEP_NEST_LEVEL@1@@@"
    ]
  },
  {
    "cmd": [],
    "name": "building build_tools/tool (2).fetch sources.installing tools",
    "~followup_annotations": [
      "@@@STEP_NEST_LEVEL@2@@@"
    ]
  },
  {
    "cmd": [
      "cipd",
      "pkg-deploy",
      "[CACHE]/3pp_cipd/3pp/pkg/dep/linux-amd64/resolved-instance_id-of-version:2@1.5.0-",
      "-root",
      "[START_DIR]/3pp/wd/build_tools/tool/linux-amd64/v1.4.1/tools_prefix",
      "-json-output",
      "/path/to/tmp/json"
    ],
    "env": {
      "CIPD_CACHE_DIR": "[CLEANUP]/tmp_tmp_1",
      "GOARCH": "amd64",
      "GOOS": "linux",
      "_3PP_CIPD_PACKAGE_NAME": "build_tools/tool",
      "_3PP_PLATFORM": "linux-amd64",
      "_3PP_TOOL_PLATFORM": "linux-amd64",
      "_3PP_VERSION": "v1.4.1"
    },
    "name": "building build_tools/tool (2).fetch sources.installing tools.cipd pkg-deploy [CACHE]/3pp_cipd/3pp/pkg/dep/linux-amd64/resolved-instance_id-of-version:2@1.5.0-",
    "~followup_annotations": [
      "@@@STEP_NEST_LEVEL@3@@@",
      "@@@STEP_LOG_LINE@json.output@{@@@",
      "@@@STEP_LOG_LINE@json.output@  \"result\": {@@@",
      "@@@STEP_LOG_LINE@json.output@    \"instance_id\": \"resolved-instance_id-of-version/of/resol\", @@@",
      "@@@STEP_LOG_LINE@json.output@    \"package\": \"pkg/name/of/resolved-instance_id-of-version:2@1.5.0-\"@@@",
      "@@@STEP_LOG_LINE@json.output@  }@@@",
      "@@@STEP_LOG_LINE@json.output@}@@@",
      "@@@STEP_LOG_END@json.output@@@"
    ]
  },
  {
    "cmd": [
      "cipd",
      "describe",
      "3pp/sources/git/go.repo/tool",
      "-version",
      "version:2@v1.4.1",
      "-json-output",
      "/path/to/tmp/json"
    ],
    "env": {
      "CIPD_CACHE_DIR": "[CLEANUP]/tmp_tmp_1",
      "GOARCH": "amd64",
      "GOOS": "linux",
      "_3PP_CIPD_PACKAGE_NAME": "build_tools/tool",
      "_3PP_PLATFORM": "linux-amd64",
      "_3PP_TOOL_PLATFORM": "linux-amd64",
      "_3PP_VERSION": "v1.4.1"
    },
    "name": "building build_tools/tool (2).fetch sources.cipd describe 3pp/sources/git/go.repo/tool",
    "~followup_annotations": [
      "@@@STEP_NEST_LEVEL@2@@@",
      "@@@STEP_LOG_LINE@json.output@{@@@",
      "@@@STEP_LOG_LINE@json.output@  \"error\": \"no such tag\", @@@",
      "@@@STEP_LOG_LINE@json.output@  \"result\": null@@@",
      "@@@STEP_LOG_LINE@json.output@}@@@",
      "@@@STEP_LOG_END@json.output@@@"
    ]
  },
  {
    "cmd": [
      "vpython3",
      "-u",
      "RECIPE_MODULE[recipe_engine::file]/resources/fileutil.py",
      "--json-output",
      "/path/to/tmp/json",
      "ensure-directory",
      "--mode",
      "0777",
      "[START_DIR]/3pp/wd/build_tools/tool/linux-amd64/v1.4.1/checkout"
    ],
    "env": {
      "CIPD_CACHE_DIR": "[CLEANUP]/tmp_tmp_1",
      "GOARCH": "amd64",
      "GOOS": "linux",
      "_3PP_CIPD_PACKAGE_NAME": "build_tools/tool",
      "_3PP_PLATFORM": "linux-amd64",
      "_3PP_TOOL_PLATFORM": "linux-amd64",
      "_3PP_VERSION": "v1.4.1"
    },
    "infra_step": true,
    "name": "building build_tools/tool (2).fetch sources.mkdir -p [workdir]/checkout/",
    "~followup_annotations": [
      "@@@STEP_NEST_LEVEL@2@@@"
    ]
  },
  {
    "cmd": [
      "cipd",
      "describe",
      "3pp/sources/git/go.repo/tool",
      "-version",
      "version:2@v1.4.1",
      "-json-output",
      "/path/to/tmp/json"
    ],
    "env": {
      "CIPD_CACHE_DIR": "[CLEANUP]/tmp_tmp_1",
      "GOARCH": "amd64",
      "GOOS": "linux",
      "_3PP_CIPD_PACKAGE_NAME": "build_tools/tool",
      "_3PP_PLATFORM": "linux-amd64",
      "_3PP_TOOL_PLATFORM": "linux-amd64",
      "_3PP_VERSION": "v1.4.1"
    },
    "name": "building build_tools/tool (2).fetch sources.cipd describe 3pp/sources/git/go.repo/tool (2)",
    "~followup_annotations": [
      "@@@STEP_NEST_LEVEL@2@@@",
      "@@@STEP_TEXT@tag 'version:2@v1.4.1' not found@@@",
      "@@@STEP_LOG_LINE@json.output@{@@@",
      "@@@STEP_LOG_LINE@json.output@  \"error\": \"no such tag\", @@@",
      "@@@STEP_LOG_LINE@json.output@  \"result\": null@@@",
      "@@@STEP_LOG_LINE@json.output@}@@@",
      "@@@STEP_LOG_END@json.output@@@"
    ]
  },
  {
    "cmd": [
      "python3",
      "-u",
      "RECIPE_MODULE[depot_tools::git]/resources/git_setup.py",
      "--path",
      "[START_DIR]/3pp/wd/build_tools/tool/linux-amd64/v1.4.1/checkout",
      "--url",
      "https://go.repo/tool"
    ],
    "env": {
      "CIPD_CACHE_DIR": "[CLEANUP]/tmp_tmp_1",
      "GOARCH": "amd64",
      "GOOS": "linux",
      "_3PP_CIPD_PACKAGE_NAME": "build_tools/tool",
      "_3PP_PLATFORM": "linux-amd64",
      "_3PP_TOOL_PLATFORM": "linux-amd64",
      "_3PP_VERSION": "v1.4.1"
    },
    "name": "building build_tools/tool (2).fetch sources.git setup",
    "~followup_annotations": [
      "@@@STEP_NEST_LEVEL@2@@@"
    ]
  },
  {
    "cmd": [
      "git",
      "fetch",
      "origin",
      "hash",
      "--progress",
      "--tags"
    ],
    "cwd": "[START_DIR]/3pp/wd/build_tools/tool/linux-amd64/v1.4.1/checkout",
    "env": {
      "CIPD_CACHE_DIR": "[CLEANUP]/tmp_tmp_1",
      "GOARCH": "amd64",
      "GOOS": "linux",
      "PATH": "RECIPE_REPO[depot_tools]:<PATH>",
      "_3PP_CIPD_PACKAGE_NAME": "build_tools/tool",
      "_3PP_PLATFORM": "linux-amd64",
      "_3PP_TOOL_PLATFORM": "linux-amd64",
      "_3PP_VERSION": "v1.4.1"
    },
    "infra_step": true,
    "name": "building build_tools/tool (2).fetch sources.git fetch",
    "~followup_annotations": [
      "@@@STEP_NEST_LEVEL@2@@@"
    ]
  },
  {
    "cmd": [
      "git",
      "checkout",
      "-f",
      "FETCH_HEAD"
    ],
    "cwd": "[START_DIR]/3pp/wd/build_tools/tool/linux-amd64/v1.4.1/checkout",
    "env": {
      "CIPD_CACHE_DIR": "[CLEANUP]/tmp_tmp_1",
      "GOARCH": "amd64",
      "GOOS": "linux",
      "_3PP_CIPD_PACKAGE_NAME": "build_tools/tool",
      "_3PP_PLATFORM": "linux-amd64",
      "_3PP_TOOL_PLATFORM": "linux-amd64",
      "_3PP_VERSION": "v1.4.1"
    },
    "infra_step": true,
    "name": "building build_tools/tool (2).fetch sources.git checkout",
    "~followup_annotations": [
      "@@@STEP_NEST_LEVEL@2@@@"
    ]
  },
  {
    "cmd": [
      "git",
      "rev-parse",
      "HEAD"
    ],
    "cwd": "[START_DIR]/3pp/wd/build_tools/tool/linux-amd64/v1.4.1/checkout",
    "env": {
      "CIPD_CACHE_DIR": "[CLEANUP]/tmp_tmp_1",
      "GOARCH": "amd64",
      "GOOS": "linux",
      "_3PP_CIPD_PACKAGE_NAME": "build_tools/tool",
      "_3PP_PLATFORM": "linux-amd64",
      "_3PP_TOOL_PLATFORM": "linux-amd64",
      "_3PP_VERSION": "v1.4.1"
    },
    "infra_step": true,
    "name": "building build_tools/tool (2).fetch sources.read revision",
    "~followup_annotations": [
      "@@@STEP_NEST_LEVEL@2@@@",
      "@@@STEP_TEXT@<br/>checked out 'deadbeef'<br/>@@@"
    ]
  },
  {
    "cmd": [
      "git",
      "clean",
      "-f",
      "-d",
      "-x"
    ],
    "cwd": "[START_DIR]/3pp/wd/build_tools/tool/linux-amd64/v1.4.1/checkout",
    "env": {
      "CIPD_CACHE_DIR": "[CLEANUP]/tmp_tmp_1",
      "GOARCH": "amd64",
      "GOOS": "linux",
      "_3PP_CIPD_PACKAGE_NAME": "build_tools/tool",
      "_3PP_PLATFORM": "linux-amd64",
      "_3PP_TOOL_PLATFORM": "linux-amd64",
      "_3PP_VERSION": "v1.4.1"
    },
    "infra_step": true,
    "name": "building build_tools/tool (2).fetch sources.git clean",
    "~followup_annotations": [
      "@@@STEP_NEST_LEVEL@2@@@"
    ]
  },
  {
    "cmd": [
      "git",
      "submodule",
      "sync"
    ],
    "cwd": "[START_DIR]/3pp/wd/build_tools/tool/linux-amd64/v1.4.1/checkout",
    "env": {
      "CIPD_CACHE_DIR": "[CLEANUP]/tmp_tmp_1",
      "GOARCH": "amd64",
      "GOOS": "linux",
      "_3PP_CIPD_PACKAGE_NAME": "build_tools/tool",
      "_3PP_PLATFORM": "linux-amd64",
      "_3PP_TOOL_PLATFORM": "linux-amd64",
      "_3PP_VERSION": "v1.4.1"
    },
    "infra_step": true,
    "name": "building build_tools/tool (2).fetch sources.submodule sync",
    "~followup_annotations": [
      "@@@STEP_NEST_LEVEL@2@@@"
    ]
  },
  {
    "cmd": [
      "git",
      "submodule",
      "update",
      "--init",
      "--recursive"
    ],
    "cwd": "[START_DIR]/3pp/wd/build_tools/tool/linux-amd64/v1.4.1/checkout",
    "env": {
      "CIPD_CACHE_DIR": "[CLEANUP]/tmp_tmp_1",
      "GOARCH": "amd64",
      "GOOS": "linux",
      "_3PP_CIPD_PACKAGE_NAME": "build_tools/tool",
      "_3PP_PLATFORM": "linux-amd64",
      "_3PP_TOOL_PLATFORM": "linux-amd64",
      "_3PP_VERSION": "v1.4.1"
    },
    "infra_step": true,
    "name": "building build_tools/tool (2).fetch sources.submodule update",
    "~followup_annotations": [
      "@@@STEP_NEST_LEVEL@2@@@"
    ]
  },
  {
    "cmd": [
      "cipd",
      "pkg-build",
      "-pkg-def",
      "{\"data\": [{\"dir\": \".\", \"exclude\": [\"\\\\.git\"]}], \"install_mode\": \"copy\", \"package\": \"3pp/sources/git/go.repo/tool\", \"preserve_writable\": true, \"root\": \"[START_DIR]/3pp/wd/build_tools/tool/linux-amd64/v1.4.1/checkout\"}",
      "-out",
      "[CLEANUP]/tmp_tmp_6",
      "-hash-algo",
      "sha256",
      "-json-output",
      "/path/to/tmp/json"
    ],
    "env": {
      "CIPD_CACHE_DIR": "[CLEANUP]/tmp_tmp_1",
      "GOARCH": "amd64",
      "GOOS": "linux",
      "_3PP_CIPD_PACKAGE_NAME": "build_tools/tool",
      "_3PP_PLATFORM": "linux-amd64",
      "_3PP_TOOL_PLATFORM": "linux-amd64",
      "_3PP_VERSION": "v1.4.1"
    },
    "name": "building build_tools/tool (2).fetch sources.build 3pp/sources/git/go.repo/tool",
    "~followup_annotations": [
      "@@@STEP_NEST_LEVEL@2@@@",
      "@@@STEP_LOG_LINE@json.output@{@@@",
      "@@@STEP_LOG_LINE@json.output@  \"result\": {@@@",
      "@@@STEP_LOG_LINE@json.output@    \"instance_id\": \"40-chars-fake-of-the-package-instance_id\", @@@",
      "@@@STEP_LOG_LINE@json.output@    \"package\": \"3pp/sources/git/go.repo/tool\"@@@",
      "@@@STEP_LOG_LINE@json.output@  }@@@",
      "@@@STEP_LOG_LINE@json.output@}@@@",
      "@@@STEP_LOG_END@json.output@@@"
    ]
  },
  {
    "cmd": [
      "vpython3",
      "-u",
      "RECIPE_MODULE[recipe_engine::file]/resources/fileutil.py",
      "--json-output",
      "/path/to/tmp/json",
      "ensure-directory",
      "--mode",
      "0777",
      "[CACHE]/3pp_cipd/3pp/sources/git/go.repo/tool"
    ],
    "env": {
      "CIPD_CACHE_DIR": "[CLEANUP]/tmp_tmp_1",
      "GOARCH": "amd64",
      "GOOS": "linux",
      "_3PP_CIPD_PACKAGE_NAME": "build_tools/tool",
      "_3PP_PLATFORM": "linux-amd64",
      "_3PP_TOOL_PLATFORM": "linux-amd64",
      "_3PP_VERSION": "v1.4.1"
    },
    "infra_step": true,
    "name": "building build_tools/tool (2).fetch sources.ensure cipd pkg cache exists",
    "~followup_annotations": [
      "@@@STEP_NEST_LEVEL@2@@@"
    ]
  },
  {
    "cmd": [
      "vpython3",
      "-u",
      "RECIPE_MODULE[recipe_engine::file]/resources/fileutil.py",
      "--json-output",
      "/path/to/tmp/json",
      "move",
      "[CLEANUP]/tmp_tmp_6",
      "[CACHE]/3pp_cipd/3pp/sources/git/go.repo/tool/40-chars-fake-of-the-package-instance_id"
    ],
    "env": {
      "CIPD_CACHE_DIR": "[CLEANUP]/tmp_tmp_1",
      "GOARCH": "amd64",
      "GOOS": "linux",
      "_3PP_CIPD_PACKAGE_NAME": "build_tools/tool",
      "_3PP_PLATFORM": "linux-amd64",
      "_3PP_TOOL_PLATFORM": "linux-amd64",
      "_3PP_VERSION": "v1.4.1"
    },
    "infra_step": true,
    "name": "building build_tools/tool (2).fetch sources.mv built cipd pkg to cache",
    "~followup_annotations": [
      "@@@STEP_NEST_LEVEL@2@@@"
    ]
  },
  {
    "cmd": [],
    "name": "building build_tools/tool (2).fetch sources.upload source to cipd",
    "~followup_annotations": [
      "@@@STEP_NEST_LEVEL@2@@@"
    ]
  },
  {
    "cmd": [
      "cipd",
      "describe",
      "3pp/sources/git/go.repo/tool",
      "-version",
      "version:2@v1.4.1",
      "-json-output",
      "/path/to/tmp/json"
    ],
    "env": {
      "CIPD_CACHE_DIR": "[CLEANUP]/tmp_tmp_1",
      "GOARCH": "amd64",
      "GOOS": "linux",
      "_3PP_CIPD_PACKAGE_NAME": "build_tools/tool",
      "_3PP_PLATFORM": "linux-amd64",
      "_3PP_TOOL_PLATFORM": "linux-amd64",
      "_3PP_VERSION": "v1.4.1"
    },
    "name": "building build_tools/tool (2).fetch sources.upload source to cipd.cipd describe 3pp/sources/git/go.repo/tool",
    "~followup_annotations": [
      "@@@STEP_NEST_LEVEL@3@@@",
      "@@@STEP_TEXT@tag 'version:2@v1.4.1' not found@@@",
      "@@@STEP_LOG_LINE@json.output@{@@@",
      "@@@STEP_LOG_LINE@json.output@  \"error\": \"no such tag\", @@@",
      "@@@STEP_LOG_LINE@json.output@  \"result\": null@@@",
      "@@@STEP_LOG_LINE@json.output@}@@@",
      "@@@STEP_LOG_END@json.output@@@"
    ]
  },
  {
    "cmd": [
      "cipd",
      "pkg-register",
      "[CACHE]/3pp_cipd/3pp/sources/git/go.repo/tool/40-chars-fake-of-the-package-instance_id",
      "-tag",
      "external_hash:hash",
      "-tag",
      "version:2@v1.4.1",
      "-json-output",
      "/path/to/tmp/json"
    ],
    "env": {
      "CIPD_CACHE_DIR": "[CLEANUP]/tmp_tmp_1",
      "GOARCH": "amd64",
      "GOOS": "linux",
      "_3PP_CIPD_PACKAGE_NAME": "build_tools/tool",
      "_3PP_PLATFORM": "linux-amd64",
      "_3PP_TOOL_PLATFORM": "linux-amd64",
      "_3PP_VERSION": "v1.4.1"
    },
    "name": "building build_tools/tool (2).fetch sources.upload source to cipd.register 3pp/sources/git/go.repo/tool",
    "~followup_annotations": [
      "@@@STEP_NEST_LEVEL@3@@@",
      "@@@STEP_LOG_LINE@json.output@{@@@",
      "@@@STEP_LOG_LINE@json.output@  \"result\": {@@@",
      "@@@STEP_LOG_LINE@json.output@    \"instance_id\": \"40-chars-fake-of-the-package-instance_id\", @@@",
      "@@@STEP_LOG_LINE@json.output@    \"package\": \"3pp/sources/git/go.repo/tool\"@@@",
      "@@@STEP_LOG_LINE@json.output@  }@@@",
      "@@@STEP_LOG_LINE@json.output@}@@@",
      "@@@STEP_LOG_END@json.output@@@",
      "@@@STEP_LINK@3pp/sources/git/go.repo/tool@https://chrome-infra-packages.appspot.com/p/3pp/sources/git/go.repo/tool/+/40-chars-fake-of-the-package-instance_id@@@"
    ]
  },
  {
    "cmd": [
      "vpython3",
      "-u",
      "RECIPE_MODULE[recipe_engine::file]/resources/fileutil.py",
      "--json-output",
      "/path/to/tmp/json",
      "copytree",
      "[CACHE]/builder/package_repo/dep",
      "[START_DIR]/3pp/wd/build_tools/tool/linux-amd64/v1.4.1/checkout/.3pp/pkg/dep"
    ],
    "env": {
      "CIPD_CACHE_DIR": "[CLEANUP]/tmp_tmp_1",
      "GOARCH": "amd64",
      "GOOS": "linux",
      "_3PP_CIPD_PACKAGE_NAME": "build_tools/tool",
      "_3PP_PLATFORM": "linux-amd64",
      "_3PP_TOOL_PLATFORM": "linux-amd64",
      "_3PP_VERSION": "v1.4.1"
    },
    "infra_step": true,
    "name": "building build_tools/tool (2).fetch sources.copy package definition pkg/dep",
    "~followup_annotations": [
      "@@@STEP_NEST_LEVEL@2@@@"
    ]
  },
  {
    "cmd": [
      "vpython3",
      "-u",
      "RECIPE_MODULE[recipe_engine::file]/resources/fileutil.py",
      "--json-output",
      "/path/to/tmp/json",
      "copytree",
      "[CACHE]/builder/package_repo/tool",
      "[START_DIR]/3pp/wd/build_tools/tool/linux-amd64/v1.4.1/checkout/.3pp/build_tools/tool"
    ],
    "env": {
      "CIPD_CACHE_DIR": "[CLEANUP]/tmp_tmp_1",
      "GOARCH": "amd64",
      "GOOS": "linux",
      "_3PP_CIPD_PACKAGE_NAME": "build_tools/tool",
      "_3PP_PLATFORM": "linux-amd64",
      "_3PP_TOOL_PLATFORM": "linux-amd64",
      "_3PP_VERSION": "v1.4.1"
    },
    "infra_step": true,
    "name": "building build_tools/tool (2).fetch sources.copy package definition build_tools/tool",
    "~followup_annotations": [
      "@@@STEP_NEST_LEVEL@2@@@"
    ]
  },
  {
    "cmd": [],
    "name": "building build_tools/tool (2).run installation",
    "~followup_annotations": [
      "@@@STEP_NEST_LEVEL@1@@@"
    ]
  },
  {
    "cmd": [
      "vpython3",
      "-u",
      "RECIPE_MODULE[recipe_engine::file]/resources/fileutil.py",
      "--json-output",
      "/path/to/tmp/json",
      "ensure-directory",
      "--mode",
      "0777",
      "[START_DIR]/3pp/wd/build_tools/tool/linux-amd64/v1.4.1/out"
    ],
    "env": {
      "CIPD_CACHE_DIR": "[CLEANUP]/tmp_tmp_1",
      "GOARCH": "amd64",
      "GOOS": "linux",
      "_3PP_CIPD_PACKAGE_NAME": "build_tools/tool",
      "_3PP_PLATFORM": "linux-amd64",
      "_3PP_TOOL_PLATFORM": "linux-amd64",
      "_3PP_VERSION": "v1.4.1"
    },
    "infra_step": true,
    "name": "building build_tools/tool (2).run installation.make output dir",
    "~followup_annotations": [
      "@@@STEP_NEST_LEVEL@2@@@"
    ]
  },
  {
    "cmd": [
      "vpython3",
      "-vpython-spec",
      "RECIPE_REPO[infra]/infra/tools/dockerbuild/standalone.vpython3",
      "-u",
      "-m",
      "infra.tools.dockerbuild",
      "--logs-debug",
      "run",
      "--platform",
      "manylinux-x64-py3",
      "--workdir",
      "[START_DIR]/3pp/wd/build_tools/tool/linux-amd64/v1.4.1",
      "--env-prefix",
      "PATH",
      "[START_DIR]/3pp/wd/build_tools/tool/linux-amd64/v1.4.1/tools_prefix",
      "--env-prefix",
      "PATH",
      "[START_DIR]/3pp/wd/build_tools/tool/linux-amd64/v1.4.1/tools_prefix/bin",
      "--env",
      "GOARCH",
      "amd64",
      "--env",
      "GOOS",
      "linux",
      "--env",
      "_3PP_CIPD_PACKAGE_NAME",
      "build_tools/tool",
      "--env",
      "_3PP_PLATFORM",
      "linux-amd64",
      "--env",
      "_3PP_TOOL_PLATFORM",
      "linux-amd64",
      "--env",
      "_3PP_VERSION",
      "v1.4.1",
      "--",
      "bash",
      "[START_DIR]/3pp/wd/build_tools/tool/linux-amd64/v1.4.1/checkout/.3pp/build_tools/tool/install.sh",
      "[START_DIR]/3pp/wd/build_tools/tool/linux-amd64/v1.4.1/out",
      "[START_DIR]/3pp/wd/build_tools/tool/linux-amd64/v1.4.1/deps_prefix"
    ],
    "cwd": "[START_DIR]/3pp/wd/build_tools/tool/linux-amd64/v1.4.1/checkout",
    "env": {
      "CIPD_CACHE_DIR": "[CLEANUP]/tmp_tmp_1",
      "GOARCH": "amd64",
      "GOOS": "linux",
      "PYTHONPATH": "RECIPE_REPO[infra]",
      "_3PP_CIPD_PACKAGE_NAME": "build_tools/tool",
      "_3PP_PLATFORM": "linux-amd64",
      "_3PP_TOOL_PLATFORM": "linux-amd64",
      "_3PP_VERSION": "v1.4.1"
    },
    "env_prefixes": {
      "PATH": [
        "[START_DIR]/3pp/wd/build_tools/tool/linux-amd64/v1.4.1/tools_prefix",
        "[START_DIR]/3pp/wd/build_tools/tool/linux-amd64/v1.4.1/tools_prefix/bin"
      ]
    },
    "name": "building build_tools/tool (2).run installation.install.sh [START_DIR]/3pp/wd/build_tools/tool/linux-amd64/v1.4.1/out [START_DIR]/3pp/wd/build_tools/tool/linux-amd64/v1.4.1/deps_prefix",
    "~followup_annotations": [
      "@@@STEP_NEST_LEVEL@2@@@"
    ]
  },
  {
    "cmd": [
      "vpython3",
      "-u",
      "RECIPE_MODULE[recipe_engine::file]/resources/fileutil.py",
      "--json-output",
      "/path/to/tmp/json",
      "listdir",
      "[START_DIR]/3pp/wd/build_tools/tool/linux-amd64/v1.4.1/out",
      "--recursive"
    ],
    "env": {
      "CIPD_CACHE_DIR": "[CLEANUP]/tmp_tmp_1",
      "GOARCH": "amd64",
      "GOOS": "linux",
      "_3PP_CIPD_PACKAGE_NAME": "build_tools/tool",
      "_3PP_PLATFORM": "linux-amd64",
      "_3PP_TOOL_PLATFORM": "linux-amd64",
      "_3PP_VERSION": "v1.4.1"
    },
    "infra_step": true,
    "name": "building build_tools/tool (2).List files to be packaged",
    "~followup_annotations": [
      "@@@STEP_NEST_LEVEL@1@@@",
      "@@@STEP_LOG_END@listdir@@@"
    ]
  },
  {
    "cmd": [
      "cipd",
      "pkg-build",
      "-pkg-def",
      "{\"data\": [{\"dir\": \".\", \"exclude\": []}], \"install_mode\": \"copy\", \"package\": \"3pp/build_tools/tool/linux-amd64\", \"root\": \"[START_DIR]/3pp/wd/build_tools/tool/linux-amd64/v1.4.1/out\"}",
      "-out",
      "[CLEANUP]/tmp_tmp_7",
      "-hash-algo",
      "sha256",
      "-json-output",
      "/path/to/tmp/json"
    ],
    "env": {
      "CIPD_CACHE_DIR": "[CLEANUP]/tmp_tmp_1",
      "GOARCH": "amd64",
      "GOOS": "linux",
      "_3PP_CIPD_PACKAGE_NAME": "build_tools/tool",
      "_3PP_PLATFORM": "linux-amd64",
      "_3PP_TOOL_PLATFORM": "linux-amd64",
      "_3PP_VERSION": "v1.4.1"
    },
    "name": "building build_tools/tool (2).build 3pp/build_tools/tool/linux-amd64",
    "~followup_annotations": [
      "@@@STEP_NEST_LEVEL@1@@@",
      "@@@STEP_LOG_LINE@json.output@{@@@",
      "@@@STEP_LOG_LINE@json.output@  \"result\": {@@@",
      "@@@STEP_LOG_LINE@json.output@    \"instance_id\": \"40-chars-fake-of-the-package-instance_id\", @@@",
      "@@@STEP_LOG_LINE@json.output@    \"package\": \"3pp/build_tools/tool/linux-amd64\"@@@",
      "@@@STEP_LOG_LINE@json.output@  }@@@",
      "@@@STEP_LOG_LINE@json.output@}@@@",
      "@@@STEP_LOG_END@json.output@@@"
    ]
  },
  {
    "cmd": [
      "vpython3",
      "-u",
      "RECIPE_MODULE[recipe_engine::file]/resources/fileutil.py",
      "--json-output",
      "/path/to/tmp/json",
      "ensure-directory",
      "--mode",
      "0777",
      "[CACHE]/3pp_cipd/3pp/build_tools/tool/linux-amd64"
    ],
    "env": {
      "CIPD_CACHE_DIR": "[CLEANUP]/tmp_tmp_1",
      "GOARCH": "amd64",
      "GOOS": "linux",
      "_3PP_CIPD_PACKAGE_NAME": "build_tools/tool",
      "_3PP_PLATFORM": "linux-amd64",
      "_3PP_TOOL_PLATFORM": "linux-amd64",
      "_3PP_VERSION": "v1.4.1"
    },
    "infra_step": true,
    "name": "building build_tools/tool (2).ensure cipd pkg cache exists",
    "~followup_annotations": [
      "@@@STEP_NEST_LEVEL@1@@@"
    ]
  },
  {
    "cmd": [
      "vpython3",
      "-u",
      "RECIPE_MODULE[recipe_engine::file]/resources/fileutil.py",
      "--json-output",
      "/path/to/tmp/json",
      "move",
      "[CLEANUP]/tmp_tmp_7",
      "[CACHE]/3pp_cipd/3pp/build_tools/tool/linux-amd64/40-chars-fake-of-the-package-instance_id"
    ],
    "env": {
      "CIPD_CACHE_DIR": "[CLEANUP]/tmp_tmp_1",
      "GOARCH": "amd64",
      "GOOS": "linux",
      "_3PP_CIPD_PACKAGE_NAME": "build_tools/tool",
      "_3PP_PLATFORM": "linux-amd64",
      "_3PP_TOOL_PLATFORM": "linux-amd64",
      "_3PP_VERSION": "v1.4.1"
    },
    "infra_step": true,
    "name": "building build_tools/tool (2).mv built cipd pkg to cache",
    "~followup_annotations": [
      "@@@STEP_NEST_LEVEL@1@@@"
    ]
  },
  {
    "cmd": [],
    "name": "building build_tools/tool (2).do upload",
    "~followup_annotations": [
      "@@@STEP_NEST_LEVEL@1@@@",
      "@@@STEP_LINK@40-chars-fake-of-the-package-instance_id@https://chrome-infra-packages.appspot.com/p/3pp/build_tools/tool/linux-amd64/+/40-chars-fake-of-the-package-instance_id@@@"
    ]
  },
  {
    "cmd": [
      "cipd",
      "describe",
      "3pp/build_tools/tool/linux-amd64",
      "-version",
      "version:2@v1.4.1",
      "-json-output",
      "/path/to/tmp/json"
    ],
    "env": {
      "CIPD_CACHE_DIR": "[CLEANUP]/tmp_tmp_1",
      "GOARCH": "amd64",
      "GOOS": "linux",
      "_3PP_CIPD_PACKAGE_NAME": "build_tools/tool",
      "_3PP_PLATFORM": "linux-amd64",
      "_3PP_TOOL_PLATFORM": "linux-amd64",
      "_3PP_VERSION": "v1.4.1"
    },
    "name": "building build_tools/tool (2).do upload.cipd describe 3pp/build_tools/tool/linux-amd64",
    "~followup_annotations": [
      "@@@STEP_NEST_LEVEL@2@@@",
      "@@@STEP_TEXT@tag 'version:2@v1.4.1' not found@@@",
      "@@@STEP_LOG_LINE@json.output@{@@@",
      "@@@STEP_LOG_LINE@json.output@  \"error\": \"no such tag\", @@@",
      "@@@STEP_LOG_LINE@json.output@  \"result\": null@@@",
      "@@@STEP_LOG_LINE@json.output@}@@@",
      "@@@STEP_LOG_END@json.output@@@"
    ]
  },
  {
    "cmd": [
      "cipd",
      "pkg-register",
      "[CACHE]/3pp_cipd/3pp/build_tools/tool/linux-amd64/40-chars-fake-of-the-package-instance_id",
      "-ref",
      "latest",
      "-tag",
      "3pp_ecosystem_hash:c2719ea17aebff53d40f52891cdc3c4758212d89987565de4a740d6c46f8deb2",
      "-tag",
      "version:2@v1.4.1",
      "-json-output",
      "/path/to/tmp/json"
    ],
    "env": {
      "CIPD_CACHE_DIR": "[CLEANUP]/tmp_tmp_1",
      "GOARCH": "amd64",
      "GOOS": "linux",
      "_3PP_CIPD_PACKAGE_NAME": "build_tools/tool",
      "_3PP_PLATFORM": "linux-amd64",
      "_3PP_TOOL_PLATFORM": "linux-amd64",
      "_3PP_VERSION": "v1.4.1"
    },
    "name": "building build_tools/tool (2).do upload.register 3pp/build_tools/tool/linux-amd64",
    "~followup_annotations": [
      "@@@STEP_NEST_LEVEL@2@@@",
      "@@@STEP_LOG_LINE@json.output@{@@@",
      "@@@STEP_LOG_LINE@json.output@  \"result\": {@@@",
      "@@@STEP_LOG_LINE@json.output@    \"instance_id\": \"40-chars-fake-of-the-package-instance_id\", @@@",
      "@@@STEP_LOG_LINE@json.output@    \"package\": \"3pp/build_tools/tool/linux-amd64\"@@@",
      "@@@STEP_LOG_LINE@json.output@  }@@@",
      "@@@STEP_LOG_LINE@json.output@}@@@",
      "@@@STEP_LOG_END@json.output@@@",
      "@@@STEP_LINK@3pp/build_tools/tool/linux-amd64@https://chrome-infra-packages.appspot.com/p/3pp/build_tools/tool/linux-amd64/+/40-chars-fake-of-the-package-instance_id@@@"
    ]
  },
  {
    "cmd": [
      "vpython3",
      "-u",
      "RECIPE_MODULE[recipe_engine::file]/resources/fileutil.py",
      "--json-output",
      "/path/to/tmp/json",
      "file_hash",
      "[CACHE]/3pp_cipd/3pp/build_tools/tool/linux-amd64/40-chars-fake-of-the-package-instance_id"
    ],
    "env": {
      "CIPD_CACHE_DIR": "[CLEANUP]/tmp_tmp_1",
      "GOARCH": "amd64",
      "GOOS": "linux",
      "_3PP_CIPD_PACKAGE_NAME": "build_tools/tool",
      "_3PP_PLATFORM": "linux-amd64",
      "_3PP_TOOL_PLATFORM": "linux-amd64",
      "_3PP_VERSION": "v1.4.1"
    },
    "infra_step": true,
    "name": "building build_tools/tool (2).do upload.Compute file hash",
    "~followup_annotations": [
      "@@@STEP_NEST_LEVEL@2@@@",
      "@@@STEP_TEXT@Hash calculated: deadbeef@@@"
    ]
  },
  {
    "cmd": [
      "[START_DIR]/reporter/snoopy_broker",
      "-report-cipd",
      "-digest",
      "deadbeef",
      "-pkg-name",
      "3pp/build_tools/tool/linux-amd64",
      "-iid",
      "40-chars-fake-of-the-package-instance_id"
    ],
    "env": {
      "CIPD_CACHE_DIR": "[CLEANUP]/tmp_tmp_1",
      "GOARCH": "amd64",
      "GOOS": "linux",
      "_3PP_CIPD_PACKAGE_NAME": "build_tools/tool",
      "_3PP_PLATFORM": "linux-amd64",
      "_3PP_TOOL_PLATFORM": "linux-amd64",
      "_3PP_VERSION": "v1.4.1"
    },
    "name": "building build_tools/tool (2).do upload.snoop: report_cipd",
    "~followup_annotations": [
      "@@@STEP_NEST_LEVEL@2@@@"
    ]
  },
  {
    "failure": {
      "failure": {},
      "humanReason": "1 out of 3 aggregated steps failed: Step('building pkg/dep.run installation.install.sh [START_DIR]/3pp/wd/pkg/dep/linux-amd64/1.5.0-rc1/out [START_DIR]/3pp/wd/pkg/dep/linux-amd64/1.5.0-rc1/deps_prefix') (retcode: 1)"
    },
    "name": "$result"
  }
]