[
  {
    "cmd": [
      "vpython3",
      "-u",
      "RECIPE_MODULE[recipe_engine::file]/resources/fileutil.py",
      "--json-output",
      "/path/to/tmp/json",
      "compute_hash",
      "RECIPE_REPO[infra]",
      "recipes/recipe_modules/support_3pp",
      "recipes/recipes/3pp.py",
      "infra/tools/dockerbuild"
    ],
    "infra_step": true,
    "name": "compute recipe file hash",
    "~followup_annotations": [
      "@@@STEP_TEXT@Hash calculated: deadbeef@@@"
    ]
  },
  {
    "cmd": [
      "echo",
      "3pp"
    ],
    "env": {
      "CIPD_CACHE_DIR": "[CLEANUP]/tmp_tmp_1"
    },
    "name": "echo package_prefix"
  },
  {
    "cmd": [
      "vpython3",
      "-u",
      "RECIPE_MODULE[recipe_engine::file]/resources/fileutil.py",
      "--json-output",
      "/path/to/tmp/json",
      "glob",
      "[CACHE]/builder/package_repo",
      "**/3pp.pb"
    ],
    "env": {
      "CIPD_CACHE_DIR": "[CLEANUP]/tmp_tmp_1"
    },
    "infra_step": true,
    "name": "find package specs",
    "~followup_annotations": [
      "@@@STEP_LOG_LINE@glob@[CACHE]/builder/package_repo/dir_tools/tool/3pp.pb@@@",
      "@@@STEP_LOG_END@glob@@@"
    ]
  },
  {
    "cmd": [],
    "name": "load package specs"
  },
  {
    "cmd": [
      "vpython3",
      "-u",
      "RECIPE_MODULE[recipe_engine::file]/resources/fileutil.py",
      "--json-output",
      "/path/to/tmp/json",
      "copy",
      "[CACHE]/builder/package_repo/dir_tools/tool/3pp.pb",
      "/path/to/tmp/"
    ],
    "env": {
      "CIPD_CACHE_DIR": "[CLEANUP]/tmp_tmp_1"
    },
    "infra_step": true,
    "name": "load package specs.read 'dir_tools/tool/3pp.pb'",
    "~followup_annotations": [
      "@@@STEP_NEST_LEVEL@1@@@",
      "@@@STEP_LOG_LINE@3pp.pb@@@@",
      "@@@STEP_LOG_LINE@3pp.pb@  create {@@@",
      "@@@STEP_LOG_LINE@3pp.pb@    source { git {@@@",
      "@@@STEP_LOG_LINE@3pp.pb@        repo: \"https://chromium.googlesource.com/external/go.repo/dep\"@@@",
      "@@@STEP_LOG_LINE@3pp.pb@        tag_pattern: \"v%s\"@@@",
      "@@@STEP_LOG_LINE@3pp.pb@        tag_filter_re: \"^v[0-9.]*$\"@@@",
      "@@@STEP_LOG_LINE@3pp.pb@    } }@@@",
      "@@@STEP_LOG_LINE@3pp.pb@  }@@@",
      "@@@STEP_LOG_LINE@3pp.pb@  upload { pkg_prefix: \"tools\" }@@@",
      "@@@STEP_LOG_LINE@3pp.pb@  @@@",
      "@@@STEP_LOG_END@3pp.pb@@@"
    ]
  },
  {
    "cmd": [
      "vpython3",
      "-u",
      "RECIPE_MODULE[recipe_engine::file]/resources/fileutil.py",
      "--json-output",
      "/path/to/tmp/json",
      "compute_hash",
      "[START_DIR]",
      "../[CACHE]/builder/package_repo/dir_tools/tool"
    ],
    "env": {
      "CIPD_CACHE_DIR": "[CLEANUP]/tmp_tmp_1"
    },
    "infra_step": true,
    "name": "load package specs.Compute hash for 'tools/tool'",
    "~followup_annotations": [
      "@@@STEP_NEST_LEVEL@1@@@",
      "@@@STEP_TEXT@Hash calculated: deadbeef@@@"
    ]
  },
  {
    "cmd": [],
    "name": "compute build plan"
  },
  {
    "cmd": [],
    "name": "building tools/tool"
  },
  {
    "cmd": [
      "git",
      "ls-remote",
      "-t",
      "https://chromium.googlesource.com/external/go.repo/dep"
    ],
    "cwd": "None",
    "env": {
      "CIPD_CACHE_DIR": "[CLEANUP]/tmp_tmp_1",
      "GOARCH": "amd64",
      "GOOS": "linux",
      "_3PP_CIPD_PACKAGE_NAME": "tools/tool",
      "_3PP_PLATFORM": "linux-amd64",
      "_3PP_TOOL_PLATFORM": "linux-amd64"
    },
    "infra_step": true,
    "name": "building tools/tool.git ls-remote",
    "~followup_annotations": [
      "@@@STEP_NEST_LEVEL@1@@@",
      "@@@STEP_TEXT@resolved version: 1.4.1@@@"
    ]
  },
  {
    "cmd": [
      "cipd",
      "describe",
      "3pp/tools/tool/linux-amd64",
      "-version",
      "version:2@1.4.1",
      "-json-output",
      "/path/to/tmp/json"
    ],
    "env": {
      "CIPD_CACHE_DIR": "[CLEANUP]/tmp_tmp_1",
      "GOARCH": "amd64",
      "GOOS": "linux",
      "_3PP_CIPD_PACKAGE_NAME": "tools/tool",
      "_3PP_PLATFORM": "linux-amd64",
      "_3PP_TOOL_PLATFORM": "linux-amd64"
    },
    "name": "building tools/tool.cipd describe 3pp/tools/tool/linux-amd64",
    "~followup_annotations": [
      "@@@STEP_NEST_LEVEL@1@@@",
      "@@@STEP_TEXT@tag 'version:2@1.4.1' not found@@@",
      "@@@STEP_LOG_LINE@json.output@{@@@",
      "@@@STEP_LOG_LINE@json.output@  \"error\": \"no such tag\", @@@",
      "@@@STEP_LOG_LINE@json.output@  \"result\": null@@@",
      "@@@STEP_LOG_LINE@json.output@}@@@",
      "@@@STEP_LOG_END@json.output@@@"
    ]
  },
  {
    "cmd": [
      "vpython3",
      "-u",
      "RECIPE_MODULE[recipe_engine::file]/resources/fileutil.py",
      "--json-output",
      "/path/to/tmp/json",
      "ensure-directory",
      "--mode",
      "0777",
      "[START_DIR]/3pp/wd/tools/tool/linux-amd64/1.4.1"
    ],
    "env": {
      "CIPD_CACHE_DIR": "[CLEANUP]/tmp_tmp_1",
      "GOARCH": "amd64",
      "GOOS": "linux",
      "_3PP_CIPD_PACKAGE_NAME": "tools/tool",
      "_3PP_PLATFORM": "linux-amd64",
      "_3PP_TOOL_PLATFORM": "linux-amd64",
      "_3PP_VERSION": "1.4.1"
    },
    "infra_step": true,
    "name": "building tools/tool.mkdir -p [workdir]",
    "~followup_annotations": [
      "@@@STEP_NEST_LEVEL@1@@@"
    ]
  },
  {
    "cmd": [],
    "name": "building tools/tool.fetch sources",
    "~followup_annotations": [
      "@@@STEP_NEST_LEVEL@1@@@"
    ]
  },
  {
    "cmd": [
      "cipd",
      "describe",
      "3pp/sources/git/go.repo/dep",
      "-version",
      "version:2@1.4.1",
      "-json-output",
      "/path/to/tmp/json"
    ],
    "env": {
      "CIPD_CACHE_DIR": "[CLEANUP]/tmp_tmp_1",
      "GOARCH": "amd64",
      "GOOS": "linux",
      "_3PP_CIPD_PACKAGE_NAME": "tools/tool",
      "_3PP_PLATFORM": "linux-amd64",
      "_3PP_TOOL_PLATFORM": "linux-amd64",
      "_3PP_VERSION": "1.4.1"
    },
    "name": "building tools/tool.fetch sources.cipd describe 3pp/sources/git/go.repo/dep",
    "~followup_annotations": [
      "@@@STEP_NEST_LEVEL@2@@@",
      "@@@STEP_LOG_LINE@json.output@{@@@",
      "@@@STEP_LOG_LINE@json.output@  \"error\": \"no such tag\", @@@",
      "@@@STEP_LOG_LINE@json.output@  \"result\": null@@@",
      "@@@STEP_LOG_LINE@json.output@}@@@",
      "@@@STEP_LOG_END@json.output@@@"
    ]
  },
  {
    "cmd": [
      "vpython3",
      "-u",
      "RECIPE_MODULE[recipe_engine::file]/resources/fileutil.py",
      "--json-output",
      "/path/to/tmp/json",
      "ensure-directory",
      "--mode",
      "0777",
      "[START_DIR]/3pp/wd/tools/tool/linux-amd64/1.4.1/checkout"
    ],
    "env": {
      "CIPD_CACHE_DIR": "[CLEANUP]/tmp_tmp_1",
      "GOARCH": "amd64",
      "GOOS": "linux",
      "_3PP_CIPD_PACKAGE_NAME": "tools/tool",
      "_3PP_PLATFORM": "linux-amd64",
      "_3PP_TOOL_PLATFORM": "linux-amd64",
      "_3PP_VERSION": "1.4.1"
    },
    "infra_step": true,
    "name": "building tools/tool.fetch sources.mkdir -p [workdir]/checkout/",
    "~followup_annotations": [
      "@@@STEP_NEST_LEVEL@2@@@"
    ]
  },
  {
    "cmd": [
      "cipd",
      "describe",
      "3pp/sources/git/go.repo/dep",
      "-version",
      "version:2@1.4.1",
      "-json-output",
      "/path/to/tmp/json"
    ],
    "env": {
      "CIPD_CACHE_DIR": "[CLEANUP]/tmp_tmp_1",
      "GOARCH": "amd64",
      "GOOS": "linux",
      "_3PP_CIPD_PACKAGE_NAME": "tools/tool",
      "_3PP_PLATFORM": "linux-amd64",
      "_3PP_TOOL_PLATFORM": "linux-amd64",
      "_3PP_VERSION": "1.4.1"
    },
    "name": "building tools/tool.fetch sources.cipd describe 3pp/sources/git/go.repo/dep (2)",
    "~followup_annotations": [
      "@@@STEP_NEST_LEVEL@2@@@",
      "@@@STEP_TEXT@tag 'version:2@1.4.1' not found@@@",
      "@@@STEP_LOG_LINE@json.output@{@@@",
      "@@@STEP_LOG_LINE@json.output@  \"error\": \"no such tag\", @@@",
      "@@@STEP_LOG_LINE@json.output@  \"result\": null@@@",
      "@@@STEP_LOG_LINE@json.output@}@@@",
      "@@@STEP_LOG_END@json.output@@@"
    ]
  },
  {
    "cmd": [
      "python3",
      "-u",
      "RECIPE_MODULE[depot_tools::git]/resources/git_setup.py",
      "--path",
      "[START_DIR]/3pp/wd/tools/tool/linux-amd64/1.4.1/checkout",
      "--url",
      "https://chromium.googlesource.com/external/go.repo/dep"
    ],
    "env": {
      "CIPD_CACHE_DIR": "[CLEANUP]/tmp_tmp_1",
      "GOARCH": "amd64",
      "GOOS": "linux",
      "_3PP_CIPD_PACKAGE_NAME": "tools/tool",
      "_3PP_PLATFORM": "linux-amd64",
      "_3PP_TOOL_PLATFORM": "linux-amd64",
      "_3PP_VERSION": "1.4.1"
    },
    "name": "building tools/tool.fetch sources.git setup",
    "~followup_annotations": [
      "@@@STEP_NEST_LEVEL@2@@@"
    ]
  },
  {
    "cmd": [
      "git",
      "fetch",
      "origin",
      "hash",
      "--progress",
      "--tags"
    ],
    "cwd": "[START_DIR]/3pp/wd/tools/tool/linux-amd64/1.4.1/checkout",
    "env": {
      "CIPD_CACHE_DIR": "[CLEANUP]/tmp_tmp_1",
      "GOARCH": "amd64",
      "GOOS": "linux",
      "PATH": "RECIPE_REPO[depot_tools]:<PATH>",
      "_3PP_CIPD_PACKAGE_NAME": "tools/tool",
      "_3PP_PLATFORM": "linux-amd64",
      "_3PP_TOOL_PLATFORM": "linux-amd64",
      "_3PP_VERSION": "1.4.1"
    },
    "infra_step": true,
    "name": "building tools/tool.fetch sources.git fetch",
    "~followup_annotations": [
      "@@@STEP_NEST_LEVEL@2@@@"
    ]
  },
  {
    "cmd": [
      "git",
      "checkout",
      "-f",
      "FETCH_HEAD"
    ],
    "cwd": "[START_DIR]/3pp/wd/tools/tool/linux-amd64/1.4.1/checkout",
    "env": {
      "CIPD_CACHE_DIR": "[CLEANUP]/tmp_tmp_1",
      "GOARCH": "amd64",
      "GOOS": "linux",
      "_3PP_CIPD_PACKAGE_NAME": "tools/tool",
      "_3PP_PLATFORM": "linux-amd64",
      "_3PP_TOOL_PLATFORM": "linux-amd64",
      "_3PP_VERSION": "1.4.1"
    },
    "infra_step": true,
    "name": "building tools/tool.fetch sources.git checkout",
    "~followup_annotations": [
      "@@@STEP_NEST_LEVEL@2@@@"
    ]
  },
  {
    "cmd": [
      "git",
      "rev-parse",
      "HEAD"
    ],
    "cwd": "[START_DIR]/3pp/wd/tools/tool/linux-amd64/1.4.1/checkout",
    "env": {
      "CIPD_CACHE_DIR": "[CLEANUP]/tmp_tmp_1",
      "GOARCH": "amd64",
      "GOOS": "linux",
      "_3PP_CIPD_PACKAGE_NAME": "tools/tool",
      "_3PP_PLATFORM": "linux-amd64",
      "_3PP_TOOL_PLATFORM": "linux-amd64",
      "_3PP_VERSION": "1.4.1"
    },
    "infra_step": true,
    "name": "building tools/tool.fetch sources.read revision",
    "~followup_annotations": [
      "@@@STEP_NEST_LEVEL@2@@@",
      "@@@STEP_TEXT@<br/>checked out 'deadbeef'<br/>@@@"
    ]
  },
  {
    "cmd": [
      "git",
      "clean",
      "-f",
      "-d",
      "-x"
    ],
    "cwd": "[START_DIR]/3pp/wd/tools/tool/linux-amd64/1.4.1/checkout",
    "env": {
      "CIPD_CACHE_DIR": "[CLEANUP]/tmp_tmp_1",
      "GOARCH": "amd64",
      "GOOS": "linux",
      "_3PP_CIPD_PACKAGE_NAME": "tools/tool",
      "_3PP_PLATFORM": "linux-amd64",
      "_3PP_TOOL_PLATFORM": "linux-amd64",
      "_3PP_VERSION": "1.4.1"
    },
    "infra_step": true,
    "name": "building tools/tool.fetch sources.git clean",
    "~followup_annotations": [
      "@@@STEP_NEST_LEVEL@2@@@"
    ]
  },
  {
    "cmd": [
      "git",
      "submodule",
      "sync"
    ],
    "cwd": "[START_DIR]/3pp/wd/tools/tool/linux-amd64/1.4.1/checkout",
    "env": {
      "CIPD_CACHE_DIR": "[CLEANUP]/tmp_tmp_1",
      "GOARCH": "amd64",
      "GOOS": "linux",
      "_3PP_CIPD_PACKAGE_NAME": "tools/tool",
      "_3PP_PLATFORM": "linux-amd64",
      "_3PP_TOOL_PLATFORM": "linux-amd64",
      "_3PP_VERSION": "1.4.1"
    },
    "infra_step": true,
    "name": "building tools/tool.fetch sources.submodule sync",
    "~followup_annotations": [
      "@@@STEP_NEST_LEVEL@2@@@"
    ]
  },
  {
    "cmd": [
      "git",
      "submodule",
      "update",
      "--init",
      "--recursive"
    ],
    "cwd": "[START_DIR]/3pp/wd/tools/tool/linux-amd64/1.4.1/checkout",
    "env": {
      "CIPD_CACHE_DIR": "[CLEANUP]/tmp_tmp_1",
      "GOARCH": "amd64",
      "GOOS": "linux",
      "_3PP_CIPD_PACKAGE_NAME": "tools/tool",
      "_3PP_PLATFORM": "linux-amd64",
      "_3PP_TOOL_PLATFORM": "linux-amd64",
      "_3PP_VERSION": "1.4.1"
    },
    "infra_step": true,
    "name": "building tools/tool.fetch sources.submodule update",
    "~followup_annotations": [
      "@@@STEP_NEST_LEVEL@2@@@"
    ]
  },
  {
    "cmd": [
      "cipd",
      "pkg-build",
      "-pkg-def",
      "{\"data\": [{\"dir\": \".\", \"exclude\": [\"\\\\.git\"]}], \"install_mode\": \"copy\", \"package\": \"3pp/sources/git/go.repo/dep\", \"preserve_writable\": true, \"root\": \"[START_DIR]/3pp/wd/tools/tool/linux-amd64/1.4.1/checkout\"}",
      "-out",
      "[CLEANUP]/tmp_tmp_2",
      "-hash-algo",
      "sha256",
      "-json-output",
      "/path/to/tmp/json"
    ],
    "env": {
      "CIPD_CACHE_DIR": "[CLEANUP]/tmp_tmp_1",
      "GOARCH": "amd64",
      "GOOS": "linux",
      "_3PP_CIPD_PACKAGE_NAME": "tools/tool",
      "_3PP_PLATFORM": "linux-amd64",
      "_3PP_TOOL_PLATFORM": "linux-amd64",
      "_3PP_VERSION": "1.4.1"
    },
    "name": "building tools/tool.fetch sources.build 3pp/sources/git/go.repo/dep",
    "~followup_annotations": [
      "@@@STEP_NEST_LEVEL@2@@@",
      "@@@STEP_LOG_LINE@json.output@{@@@",
      "@@@STEP_LOG_LINE@json.output@  \"result\": {@@@",
      "@@@STEP_LOG_LINE@json.output@    \"instance_id\": \"40-chars-fake-of-the-package-instance_id\", @@@",
      "@@@STEP_LOG_LINE@json.output@    \"package\": \"3pp/sources/git/go.repo/dep\"@@@",
      "@@@STEP_LOG_LINE@json.output@  }@@@",
      "@@@STEP_LOG_LINE@json.output@}@@@",
      "@@@STEP_LOG_END@json.output@@@"
    ]
  },
  {
    "cmd": [
      "vpython3",
      "-u",
      "RECIPE_MODULE[recipe_engine::file]/resources/fileutil.py",
      "--json-output",
      "/path/to/tmp/json",
      "ensure-directory",
      "--mode",
      "0777",
      "[CACHE]/3pp_cipd/3pp/sources/git/go.repo/dep"
    ],
    "env": {
      "CIPD_CACHE_DIR": "[CLEANUP]/tmp_tmp_1",
      "GOARCH": "amd64",
      "GOOS": "linux",
      "_3PP_CIPD_PACKAGE_NAME": "tools/tool",
      "_3PP_PLATFORM": "linux-amd64",
      "_3PP_TOOL_PLATFORM": "linux-amd64",
      "_3PP_VERSION": "1.4.1"
    },
    "infra_step": true,
    "name": "building tools/tool.fetch sources.ensure cipd pkg cache exists",
    "~followup_annotations": [
      "@@@STEP_NEST_LEVEL@2@@@"
    ]
  },
  {
    "cmd": [
      "vpython3",
      "-u",
      "RECIPE_MODULE[recipe_engine::file]/resources/fileutil.py",
      "--json-output",
      "/path/to/tmp/json",
      "move",
      "[CLEANUP]/tmp_tmp_2",
      "[CACHE]/3pp_cipd/3pp/sources/git/go.repo/dep/40-chars-fake-of-the-package-instance_id"
    ],
    "env": {
      "CIPD_CACHE_DIR": "[CLEANUP]/tmp_tmp_1",
      "GOARCH": "amd64",
      "GOOS": "linux",
      "_3PP_CIPD_PACKAGE_NAME": "tools/tool",
      "_3PP_PLATFORM": "linux-amd64",
      "_3PP_TOOL_PLATFORM": "linux-amd64",
      "_3PP_VERSION": "1.4.1"
    },
    "infra_step": true,
    "name": "building tools/tool.fetch sources.mv built cipd pkg to cache",
    "~followup_annotations": [
      "@@@STEP_NEST_LEVEL@2@@@"
    ]
  },
  {
    "cmd": [],
    "name": "building tools/tool.fetch sources.upload source to cipd",
    "~followup_annotations": [
      "@@@STEP_NEST_LEVEL@2@@@"
    ]
  },
  {
    "cmd": [
      "cipd",
      "describe",
      "3pp/sources/git/go.repo/dep",
      "-version",
      "version:2@1.4.1",
      "-json-output",
      "/path/to/tmp/json"
    ],
    "env": {
      "CIPD_CACHE_DIR": "[CLEANUP]/tmp_tmp_1",
      "GOARCH": "amd64",
      "GOOS": "linux",
      "_3PP_CIPD_PACKAGE_NAME": "tools/tool",
      "_3PP_PLATFORM": "linux-amd64",
      "_3PP_TOOL_PLATFORM": "linux-amd64",
      "_3PP_VERSION": "1.4.1"
    },
    "name": "building tools/tool.fetch sources.upload source to cipd.cipd describe 3pp/sources/git/go.repo/dep",
    "~followup_annotations": [
      "@@@STEP_NEST_LEVEL@3@@@",
      "@@@STEP_TEXT@tag 'version:2@1.4.1' not found@@@",
      "@@@STEP_LOG_LINE@json.output@{@@@",
      "@@@STEP_LOG_LINE@json.output@  \"error\": \"no such tag\", @@@",
      "@@@STEP_LOG_LINE@json.output@  \"result\": null@@@",
      "@@@STEP_LOG_LINE@json.output@}@@@",
      "@@@STEP_LOG_END@json.output@@@"
    ]
  },
  {
    "cmd": [
      "cipd",
      "pkg-register",
      "[CACHE]/3pp_cipd/3pp/sources/git/go.repo/dep/40-chars-fake-of-the-package-instance_id",
      "-tag",
      "external_hash:hash",
      "-tag",
      "version:2@1.4.1",
      "-json-output",
      "/path/to/tmp/json"
    ],
    "env": {
      "CIPD_CACHE_DIR": "[CLEANUP]/tmp_tmp_1",
      "GOARCH": "amd64",
      "GOOS": "linux",
      "_3PP_CIPD_PACKAGE_NAME": "tools/tool",
      "_3PP_PLATFORM": "linux-amd64",
      "_3PP_TOOL_PLATFORM": "linux-amd64",
      "_3PP_VERSION": "1.4.1"
    },
    "name": "building tools/tool.fetch sources.upload source to cipd.register 3pp/sources/git/go.repo/dep",
    "~followup_annotations": [
      "@@@STEP_NEST_LEVEL@3@@@",
      "@@@STEP_LOG_LINE@json.output@{@@@",
      "@@@STEP_LOG_LINE@json.output@  \"result\": {@@@",
      "@@@STEP_LOG_LINE@json.output@    \"instance_id\": \"40-chars-fake-of-the-package-instance_id\", @@@",
      "@@@STEP_LOG_LINE@json.output@    \"package\": \"3pp/sources/git/go.repo/dep\"@@@",
      "@@@STEP_LOG_LINE@json.output@  }@@@",
      "@@@STEP_LOG_LINE@json.output@}@@@",
      "@@@STEP_LOG_END@json.output@@@",
      "@@@STEP_LINK@3pp/sources/git/go.repo/dep@https://chrome-infra-packages.appspot.com/p/3pp/sources/git/go.repo/dep/+/40-chars-fake-of-the-package-instance_id@@@"
    ]
  },
  {
    "cmd": [
      "vpython3",
      "-u",
      "RECIPE_MODULE[recipe_engine::file]/resources/fileutil.py",
      "--json-output",
      "/path/to/tmp/json",
      "listdir",
      "[START_DIR]/3pp/wd/tools/tool/linux-amd64/1.4.1/checkout",
      "--recursive"
    ],
    "env": {
      "CIPD_CACHE_DIR": "[CLEANUP]/tmp_tmp_1",
      "GOARCH": "amd64",
      "GOOS": "linux",
      "_3PP_CIPD_PACKAGE_NAME": "tools/tool",
      "_3PP_PLATFORM": "linux-amd64",
      "_3PP_TOOL_PLATFORM": "linux-amd64",
      "_3PP_VERSION": "1.4.1"
    },
    "infra_step": true,
    "name": "building tools/tool.List files to be packaged",
    "~followup_annotations": [
      "@@@STEP_NEST_LEVEL@1@@@",
      "@@@STEP_LOG_END@listdir@@@"
    ]
  },
  {
    "cmd": [
      "cipd",
      "pkg-build",
      "-pkg-def",
      "{\"data\": [{\"dir\": \".\", \"exclude\": []}], \"install_mode\": \"copy\", \"package\": \"3pp/tools/tool/linux-amd64\", \"root\": \"[START_DIR]/3pp/wd/tools/tool/linux-amd64/1.4.1/checkout\"}",
      "-out",
      "[CLEANUP]/tmp_tmp_3",
      "-hash-algo",
      "sha256",
      "-json-output",
      "/path/to/tmp/json"
    ],
    "env": {
      "CIPD_CACHE_DIR": "[CLEANUP]/tmp_tmp_1",
      "GOARCH": "amd64",
      "GOOS": "linux",
      "_3PP_CIPD_PACKAGE_NAME": "tools/tool",
      "_3PP_PLATFORM": "linux-amd64",
      "_3PP_TOOL_PLATFORM": "linux-amd64",
      "_3PP_VERSION": "1.4.1"
    },
    "name": "building tools/tool.build 3pp/tools/tool/linux-amd64",
    "~followup_annotations": [
      "@@@STEP_NEST_LEVEL@1@@@",
      "@@@STEP_LOG_LINE@json.output@{@@@",
      "@@@STEP_LOG_LINE@json.output@  \"result\": {@@@",
      "@@@STEP_LOG_LINE@json.output@    \"instance_id\": \"40-chars-fake-of-the-package-instance_id\", @@@",
      "@@@STEP_LOG_LINE@json.output@    \"package\": \"3pp/tools/tool/linux-amd64\"@@@",
      "@@@STEP_LOG_LINE@json.output@  }@@@",
      "@@@STEP_LOG_LINE@json.output@}@@@",
      "@@@STEP_LOG_END@json.output@@@"
    ]
  },
  {
    "cmd": [
      "vpython3",
      "-u",
      "RECIPE_MODULE[recipe_engine::file]/resources/fileutil.py",
      "--json-output",
      "/path/to/tmp/json",
      "ensure-directory",
      "--mode",
      "0777",
      "[CACHE]/3pp_cipd/3pp/tools/tool/linux-amd64"
    ],
    "env": {
      "CIPD_CACHE_DIR": "[CLEANUP]/tmp_tmp_1",
      "GOARCH": "amd64",
      "GOOS": "linux",
      "_3PP_CIPD_PACKAGE_NAME": "tools/tool",
      "_3PP_PLATFORM": "linux-amd64",
      "_3PP_TOOL_PLATFORM": "linux-amd64",
      "_3PP_VERSION": "1.4.1"
    },
    "infra_step": true,
    "name": "building tools/tool.ensure cipd pkg cache exists",
    "~followup_annotations": [
      "@@@STEP_NEST_LEVEL@1@@@"
    ]
  },
  {
    "cmd": [
      "vpython3",
      "-u",
      "RECIPE_MODULE[recipe_engine::file]/resources/fileutil.py",
      "--json-output",
      "/path/to/tmp/json",
      "move",
      "[CLEANUP]/tmp_tmp_3",
      "[CACHE]/3pp_cipd/3pp/tools/tool/linux-amd64/40-chars-fake-of-the-package-instance_id"
    ],
    "env": {
      "CIPD_CACHE_DIR": "[CLEANUP]/tmp_tmp_1",
      "GOARCH": "amd64",
      "GOOS": "linux",
      "_3PP_CIPD_PACKAGE_NAME": "tools/tool",
      "_3PP_PLATFORM": "linux-amd64",
      "_3PP_TOOL_PLATFORM": "linux-amd64",
      "_3PP_VERSION": "1.4.1"
    },
    "infra_step": true,
    "name": "building tools/tool.mv built cipd pkg to cache",
    "~followup_annotations": [
      "@@@STEP_NEST_LEVEL@1@@@"
    ]
  },
  {
    "cmd": [],
    "name": "building tools/tool.do upload",
    "~followup_annotations": [
      "@@@STEP_NEST_LEVEL@1@@@",
      "@@@STEP_LINK@40-chars-fake-of-the-package-instance_id@https://chrome-infra-packages.appspot.com/p/3pp/tools/tool/linux-amd64/+/40-chars-fake-of-the-package-instance_id@@@"
    ]
  },
  {
    "cmd": [
      "cipd",
      "describe",
      "3pp/tools/tool/linux-amd64",
      "-version",
      "version:2@1.4.1",
      "-json-output",
      "/path/to/tmp/json"
    ],
    "env": {
      "CIPD_CACHE_DIR": "[CLEANUP]/tmp_tmp_1",
      "GOARCH": "amd64",
      "GOOS": "linux",
      "_3PP_CIPD_PACKAGE_NAME": "tools/tool",
      "_3PP_PLATFORM": "linux-amd64",
      "_3PP_TOOL_PLATFORM": "linux-amd64",
      "_3PP_VERSION": "1.4.1"
    },
    "name": "building tools/tool.do upload.cipd describe 3pp/tools/tool/linux-amd64",
    "~followup_annotations": [
      "@@@STEP_NEST_LEVEL@2@@@",
      "@@@STEP_TEXT@tag 'version:2@1.4.1' not found@@@",
      "@@@STEP_LOG_LINE@json.output@{@@@",
      "@@@STEP_LOG_LINE@json.output@  \"error\": \"no such tag\", @@@",
      "@@@STEP_LOG_LINE@json.output@  \"result\": null@@@",
      "@@@STEP_LOG_LINE@json.output@}@@@",
      "@@@STEP_LOG_END@json.output@@@"
    ]
  },
  {
    "cmd": [
      "cipd",
      "pkg-register",
      "[CACHE]/3pp_cipd/3pp/tools/tool/linux-amd64/40-chars-fake-of-the-package-instance_id",
      "-ref",
      "latest",
      "-tag",
      "3pp_ecosystem_hash:5428f29eb8e0873b4b5fd4ad30843f6b867b8ca49f9f22caaab8222bc4ef8841",
      "-tag",
      "version:2@1.4.1",
      "-json-output",
      "/path/to/tmp/json"
    ],
    "env": {
      "CIPD_CACHE_DIR": "[CLEANUP]/tmp_tmp_1",
      "GOARCH": "amd64",
      "GOOS": "linux",
      "_3PP_CIPD_PACKAGE_NAME": "tools/tool",
      "_3PP_PLATFORM": "linux-amd64",
      "_3PP_TOOL_PLATFORM": "linux-amd64",
      "_3PP_VERSION": "1.4.1"
    },
    "name": "building tools/tool.do upload.register 3pp/tools/tool/linux-amd64",
    "~followup_annotations": [
      "@@@STEP_NEST_LEVEL@2@@@",
      "@@@STEP_LOG_LINE@json.output@{@@@",
      "@@@STEP_LOG_LINE@json.output@  \"result\": {@@@",
      "@@@STEP_LOG_LINE@json.output@    \"instance_id\": \"40-chars-fake-of-the-package-instance_id\", @@@",
      "@@@STEP_LOG_LINE@json.output@    \"package\": \"3pp/tools/tool/linux-amd64\"@@@",
      "@@@STEP_LOG_LINE@json.output@  }@@@",
      "@@@STEP_LOG_LINE@json.output@}@@@",
      "@@@STEP_LOG_END@json.output@@@",
      "@@@STEP_LINK@3pp/tools/tool/linux-amd64@https://chrome-infra-packages.appspot.com/p/3pp/tools/tool/linux-amd64/+/40-chars-fake-of-the-package-instance_id@@@"
    ]
  },
  {
    "cmd": [
      "vpython3",
      "-u",
      "RECIPE_MODULE[recipe_engine::file]/resources/fileutil.py",
      "--json-output",
      "/path/to/tmp/json",
      "file_hash",
      "[CACHE]/3pp_cipd/3pp/tools/tool/linux-amd64/40-chars-fake-of-the-package-instance_id"
    ],
    "env": {
      "CIPD_CACHE_DIR": "[CLEANUP]/tmp_tmp_1",
      "GOARCH": "amd64",
      "GOOS": "linux",
      "_3PP_CIPD_PACKAGE_NAME": "tools/tool",
      "_3PP_PLATFORM": "linux-amd64",
      "_3PP_TOOL_PLATFORM": "linux-amd64",
      "_3PP_VERSION": "1.4.1"
    },
    "infra_step": true,
    "name": "building tools/tool.do upload.Compute file hash",
    "~followup_annotations": [
      "@@@STEP_NEST_LEVEL@2@@@",
      "@@@STEP_TEXT@Hash calculated: deadbeef@@@"
    ]
  },
  {
    "cmd": [
      "cipd",
      "ensure",
      "-root",
      "[START_DIR]/reporter",
      "-ensure-file",
      "infra/tools/security/provenance_broker/${platform} git_revision:d3cf3b0144447a77fd79c84fe8500dfe993ef602",
      "-max-threads",
      "0",
      "-json-output",
      "/path/to/tmp/json"
    ],
    "env": {
      "CIPD_CACHE_DIR": "[CLEANUP]/tmp_tmp_1",
      "GOARCH": "amd64",
      "GOOS": "linux",
      "_3PP_CIPD_PACKAGE_NAME": "tools/tool",
      "_3PP_PLATFORM": "linux-amd64",
      "_3PP_TOOL_PLATFORM": "linux-amd64",
      "_3PP_VERSION": "1.4.1"
    },
    "name": "building tools/tool.do upload.ensure_installed",
    "~followup_annotations": [
      "@@@STEP_NEST_LEVEL@2@@@",
      "@@@STEP_LOG_LINE@json.output@{@@@",
      "@@@STEP_LOG_LINE@json.output@  \"result\": {@@@",
      "@@@STEP_LOG_LINE@json.output@    \"\": [@@@",
      "@@@STEP_LOG_LINE@json.output@      {@@@",
      "@@@STEP_LOG_LINE@json.output@        \"instance_id\": \"resolved-instance_id-of-git_revision:d3c\", @@@",
      "@@@STEP_LOG_LINE@json.output@        \"package\": \"infra/tools/security/provenance_broker/resolved-platform\"@@@",
      "@@@STEP_LOG_LINE@json.output@      }@@@",
      "@@@STEP_LOG_LINE@json.output@    ]@@@",
      "@@@STEP_LOG_LINE@json.output@  }@@@",
      "@@@STEP_LOG_LINE@json.output@}@@@",
      "@@@STEP_LOG_END@json.output@@@"
    ]
  },
  {
    "cmd": [
      "[START_DIR]/reporter/snoopy_broker",
      "-report-cipd",
      "-digest",
      "deadbeef",
      "-pkg-name",
      "3pp/tools/tool/linux-amd64",
      "-iid",
      "40-chars-fake-of-the-package-instance_id"
    ],
    "env": {
      "CIPD_CACHE_DIR": "[CLEANUP]/tmp_tmp_1",
      "GOARCH": "amd64",
      "GOOS": "linux",
      "_3PP_CIPD_PACKAGE_NAME": "tools/tool",
      "_3PP_PLATFORM": "linux-amd64",
      "_3PP_TOOL_PLATFORM": "linux-amd64",
      "_3PP_VERSION": "1.4.1"
    },
    "name": "building tools/tool.do upload.snoop: report_cipd",
    "~followup_annotations": [
      "@@@STEP_NEST_LEVEL@2@@@"
    ]
  },
  {
    "cmd": [],
    "name": "compute build plan (2)"
  },
  {
    "name": "$result"
  }
]